GFORTRAN module version '10' created from ifit_modules.f
MD5:c5f721d5679ca8bf3c22515edd953544 -- If you edit this, you'll get what you deserve.

(() () () () () () () () () () () () () () () () () () () () () () ()
() () () ())

()

()

()

()

()

(2 'doubler' 'set_precision' '' 1 ((PARAMETER UNKNOWN-INTENT
UNKNOWN-PROC UNKNOWN IMPLICIT-SAVE 0 0) (INTEGER 4 0 0 0 INTEGER ()) 0 0
() (CONSTANT (INTEGER 4 0 0 0 INTEGER ()) 0 '8') () 0 () () () 0 0)
3 'fft' 'fourier' '' 1 ((VARIABLE UNKNOWN-INTENT UNKNOWN-PROC UNKNOWN
IMPLICIT-SAVE 0 0 ALLOCATABLE DIMENSION) (COMPLEX 8 0 0 0 COMPLEX ()) 0
0 () (1 0 DEFERRED () ()) 0 () () () 0 0)
4 'fourier' 'fourier' '' 1 ((MODULE UNKNOWN-INTENT UNKNOWN-PROC UNKNOWN
UNKNOWN 0 0) (UNKNOWN 0 0 0 0 UNKNOWN ()) 0 0 () () 0 () () () 0 0)
5 'set_precision' 'set_precision' '' 1 ((MODULE UNKNOWN-INTENT
UNKNOWN-PROC UNKNOWN UNKNOWN 0 0) (UNKNOWN 0 0 0 0 UNKNOWN ()) 0 0 () ()
0 () () () 0 0)
)

('doubler' 0 2 'fft' 0 3 'fourier' 0 4 'set_precision' 0 5)
