GFORTRAN module version '10' created from ifit_modules.f
MD5:453b26cd09ca6626fbfcbb662ccd775f -- If you edit this, you'll get what you deserve.

(() () () () () () () () () () () () () () () () () () () () () () ()
() () () ())

()

()

()

()

()

(2 'add_more' 'ifitnot_vars' '' 1 ((VARIABLE UNKNOWN-INTENT UNKNOWN-PROC
UNKNOWN IMPLICIT-SAVE 0 0) (LOGICAL 4 0 0 0 LOGICAL ()) 0 0 () () 0 () ()
() 0 0)
3 'adding_line' 'ifitnot_vars' '' 1 ((VARIABLE UNKNOWN-INTENT
UNKNOWN-PROC UNKNOWN IMPLICIT-SAVE 0 0) (LOGICAL 4 0 0 0 LOGICAL ()) 0 0
() () 0 () () () 0 0)
4 'alpha' 'ifitnot_vars' '' 1 ((VARIABLE UNKNOWN-INTENT UNKNOWN-PROC
UNKNOWN IMPLICIT-SAVE 0 0 ALLOCATABLE DIMENSION) (REAL 8 0 0 0 REAL ())
0 0 () (2 0 DEFERRED () () () ()) 0 () () () 0 0)
5 'aod_error' 'ifitnot_vars' '' 1 ((VARIABLE UNKNOWN-INTENT UNKNOWN-PROC
UNKNOWN IMPLICIT-SAVE 0 0 ALLOCATABLE DIMENSION) (REAL 8 0 0 0 REAL ())
0 0 () (1 0 DEFERRED () ()) 0 () () () 0 0)
6 'aod_residum' 'ifitnot_vars' '' 1 ((VARIABLE UNKNOWN-INTENT
UNKNOWN-PROC UNKNOWN IMPLICIT-SAVE 0 0 ALLOCATABLE DIMENSION) (REAL 8 0
0 0 REAL ()) 0 0 () (1 0 DEFERRED () ()) 0 () () () 0 0)
7 'arr_pos_min' 'ifitnot_vars' '' 1 ((VARIABLE UNKNOWN-INTENT
UNKNOWN-PROC UNKNOWN IMPLICIT-SAVE 0 0 DIMENSION) (INTEGER 4 0 0 0
INTEGER ()) 0 0 () (1 0 EXPLICIT (CONSTANT (INTEGER 4 0 0 0 INTEGER ())
0 '1') (CONSTANT (INTEGER 4 0 0 0 INTEGER ()) 0 '1')) 0 () () () 0 0)
8 'array_aux' 'ifitnot_vars' '' 1 ((VARIABLE UNKNOWN-INTENT UNKNOWN-PROC
UNKNOWN IMPLICIT-SAVE 0 0 DIMENSION) (REAL 8 0 0 0 REAL ()) 0 0 () (1 0
EXPLICIT (CONSTANT (INTEGER 4 0 0 0 INTEGER ()) 0 '1') (CONSTANT (
INTEGER 4 0 0 0 INTEGER ()) 0 '10')) 0 () () () 0 0)
9 'average_flux_local' 'ifitnot_vars' '' 1 ((VARIABLE UNKNOWN-INTENT
UNKNOWN-PROC UNKNOWN IMPLICIT-SAVE 0 0) (REAL 8 0 0 0 REAL ()) 0 0 () ()
0 () () () 0 0)
10 'average_noise' 'ifitnot_vars' '' 1 ((VARIABLE UNKNOWN-INTENT
UNKNOWN-PROC UNKNOWN IMPLICIT-SAVE 0 0) (REAL 8 0 0 0 REAL ()) 0 0 () ()
0 () () () 0 0)
11 'average_noise_local' 'ifitnot_vars' '' 1 ((VARIABLE UNKNOWN-INTENT
UNKNOWN-PROC UNKNOWN IMPLICIT-SAVE 0 0) (REAL 8 0 0 0 REAL ()) 0 0 () ()
0 () () () 0 0)
12 'average_noise_local_tau' 'ifitnot_vars' '' 1 ((VARIABLE
UNKNOWN-INTENT UNKNOWN-PROC UNKNOWN IMPLICIT-SAVE 0 0) (REAL 8 0 0 0
REAL ()) 0 0 () () 0 () () () 0 0)
13 'average_sn_local' 'ifitnot_vars' '' 1 ((VARIABLE UNKNOWN-INTENT
UNKNOWN-PROC UNKNOWN IMPLICIT-SAVE 0 0) (REAL 8 0 0 0 REAL ()) 0 0 () ()
0 () () () 0 0)
14 'best_chi2_add' 'ifitnot_vars' '' 1 ((VARIABLE UNKNOWN-INTENT
UNKNOWN-PROC UNKNOWN IMPLICIT-SAVE 0 0) (REAL 8 0 0 0 REAL ()) 0 0 () ()
0 () () () 0 0)
15 'best_reduced_chi2' 'ifitnot_vars' '' 1 ((VARIABLE UNKNOWN-INTENT
UNKNOWN-PROC UNKNOWN IMPLICIT-SAVE 0 0) (REAL 8 0 0 0 REAL ()) 0 0 () ()
0 () () () 0 0)
16 'best_reduced_chi2_succ' 'ifitnot_vars' '' 1 ((VARIABLE
UNKNOWN-INTENT UNKNOWN-PROC UNKNOWN IMPLICIT-SAVE 0 0) (REAL 8 0 0 0
REAL ()) 0 0 () () 0 () () () 0 0)
17 'check_fit' 'ifitnot_vars' '' 1 ((VARIABLE UNKNOWN-INTENT
UNKNOWN-PROC UNKNOWN IMPLICIT-SAVE 0 0) (LOGICAL 4 0 0 0 LOGICAL ()) 0 0
() () 0 () () () 0 0)
18 'chi2_before_add' 'ifitnot_vars' '' 1 ((VARIABLE UNKNOWN-INTENT
UNKNOWN-PROC UNKNOWN IMPLICIT-SAVE 0 0) (REAL 8 0 0 0 REAL ()) 0 0 () ()
0 () () () 0 0)
19 'chi2_before_discard' 'ifitnot_vars' '' 1 ((VARIABLE UNKNOWN-INTENT
UNKNOWN-PROC UNKNOWN IMPLICIT-SAVE 0 0) (REAL 8 0 0 0 REAL ()) 0 0 () ()
0 () () () 0 0)
20 'chi2_current' 'ifitnot_vars' '' 1 ((VARIABLE UNKNOWN-INTENT
UNKNOWN-PROC UNKNOWN IMPLICIT-SAVE 0 0) (REAL 8 0 0 0 REAL ()) 0 0 () ()
0 () () () 0 0)
21 'chi2_current_succ' 'ifitnot_vars' '' 1 ((VARIABLE UNKNOWN-INTENT
UNKNOWN-PROC UNKNOWN IMPLICIT-SAVE 0 0) (REAL 8 0 0 0 REAL ()) 0 0 () ()
0 () () () 0 0)
22 'chi2_decrease_iteration' 'ifitnot_vars' '' 1 ((PARAMETER
UNKNOWN-INTENT UNKNOWN-PROC UNKNOWN IMPLICIT-SAVE 0 0) (INTEGER 4 0 0 0
INTEGER ()) 0 0 () (CONSTANT (INTEGER 4 0 0 0 INTEGER ()) 0 '10') () 0 ()
() () 0 0)
23 'chi2_decrease_rate_average' 'ifitnot_vars' '' 1 ((VARIABLE
UNKNOWN-INTENT UNKNOWN-PROC UNKNOWN IMPLICIT-SAVE 0 0) (REAL 8 0 0 0
REAL ()) 0 0 () () 0 () () () 0 0)
24 'chi2_decrease_rate_average_array' 'ifitnot_vars' '' 1 ((VARIABLE
UNKNOWN-INTENT UNKNOWN-PROC UNKNOWN IMPLICIT-SAVE 0 0 DIMENSION) (REAL 8
0 0 0 REAL ()) 0 0 () (1 0 EXPLICIT (CONSTANT (INTEGER 4 0 0 0 INTEGER ())
0 '1') (CONSTANT (INTEGER 4 0 0 0 INTEGER ()) 0 '10')) 0 () () () 0 0)
25 'chi2_decrease_rate_diff' 'ifitnot_vars' '' 1 ((VARIABLE
UNKNOWN-INTENT UNKNOWN-PROC UNKNOWN IMPLICIT-SAVE 0 0) (REAL 8 0 0 0
REAL ()) 0 0 () () 0 () () () 0 0)
26 'chi2_evolution' 'ifitnot_vars' '' 1 ((VARIABLE UNKNOWN-INTENT
UNKNOWN-PROC UNKNOWN IMPLICIT-SAVE 0 0 ALLOCATABLE DIMENSION) (REAL 8 0
0 0 REAL ()) 0 0 () (1 0 DEFERRED () ()) 0 () () () 0 0)
27 'chi2_initial' 'ifitnot_vars' '' 1 ((VARIABLE UNKNOWN-INTENT
UNKNOWN-PROC UNKNOWN IMPLICIT-SAVE 0 0) (REAL 8 0 0 0 REAL ()) 0 0 () ()
0 () () () 0 0)
28 'chi2_min_local' 'ifitnot_vars' '' 1 ((VARIABLE UNKNOWN-INTENT
UNKNOWN-PROC UNKNOWN IMPLICIT-SAVE 0 0) (REAL 8 0 0 0 REAL ()) 0 0 () ()
0 () () () 0 0)
29 'chi2_previous' 'ifitnot_vars' '' 1 ((VARIABLE UNKNOWN-INTENT
UNKNOWN-PROC UNKNOWN IMPLICIT-SAVE 0 0) (REAL 8 0 0 0 REAL ()) 0 0 () ()
0 () () () 0 0)
30 'chi2_terms' 'ifitnot_vars' '' 1 ((VARIABLE UNKNOWN-INTENT
UNKNOWN-PROC UNKNOWN IMPLICIT-SAVE 0 0 ALLOCATABLE DIMENSION) (REAL 8 0
0 0 REAL ()) 0 0 () (1 0 DEFERRED () ()) 0 () () () 0 0)
31 'covar' 'ifitnot_vars' '' 1 ((VARIABLE UNKNOWN-INTENT UNKNOWN-PROC
UNKNOWN IMPLICIT-SAVE 0 0 ALLOCATABLE DIMENSION) (REAL 8 0 0 0 REAL ())
0 0 () (2 0 DEFERRED () () () ()) 0 () () () 0 0)
32 'data_in' 'ifitnot_vars' '' 1 ((VARIABLE UNKNOWN-INTENT UNKNOWN-PROC
UNKNOWN IMPLICIT-SAVE 0 0 ALLOCATABLE DIMENSION) (REAL 8 0 0 0 REAL ())
0 0 () (1 0 DEFERRED () ()) 0 () () () 0 0)
33 'degrees_of_freedom' 'ifitnot_vars' '' 1 ((VARIABLE UNKNOWN-INTENT
UNKNOWN-PROC UNKNOWN IMPLICIT-SAVE 0 0) (INTEGER 4 0 0 0 INTEGER ()) 0 0
() () 0 () () () 0 0)
34 'degrees_of_freedom_previous' 'ifitnot_vars' '' 1 ((VARIABLE
UNKNOWN-INTENT UNKNOWN-PROC UNKNOWN IMPLICIT-SAVE 0 0) (INTEGER 4 0 0 0
INTEGER ()) 0 0 () () 0 () () () 0 0)
35 'discard_outliers' 'ifitnot_vars' '' 1 ((VARIABLE UNKNOWN-INTENT
UNKNOWN-PROC UNKNOWN IMPLICIT-SAVE 0 0) (LOGICAL 4 0 0 0 LOGICAL ()) 0 0
() () 0 () () () 0 0)
36 'discarded_line' 'ifitnot_vars' '' 1 ((VARIABLE UNKNOWN-INTENT
UNKNOWN-PROC UNKNOWN IMPLICIT-SAVE 0 0) (INTEGER 4 0 0 0 INTEGER ()) 0 0
() () 0 () () () 0 0)
37 'discarded_lines' 'ifitnot_vars' '' 1 ((VARIABLE UNKNOWN-INTENT
UNKNOWN-PROC UNKNOWN IMPLICIT-SAVE 0 0) (INTEGER 4 0 0 0 INTEGER ()) 0 0
() () 0 () () () 0 0)
38 'do_fit' 'ifitnot_vars' '' 1 ((VARIABLE UNKNOWN-INTENT UNKNOWN-PROC
UNKNOWN IMPLICIT-SAVE 0 0) (LOGICAL 4 0 0 0 LOGICAL ()) 0 0 () () 0 () ()
() 0 0)
39 'doublei' 'set_precision' '' 1 ((PARAMETER UNKNOWN-INTENT
UNKNOWN-PROC UNKNOWN IMPLICIT-SAVE 0 0) (INTEGER 4 0 0 0 INTEGER ()) 0 0
() (CONSTANT (INTEGER 4 0 0 0 INTEGER ()) 0 '8') () 0 () () () 0 0)
40 'doubler' 'set_precision' '' 1 ((PARAMETER UNKNOWN-INTENT
UNKNOWN-PROC UNKNOWN IMPLICIT-SAVE 0 0) (INTEGER 4 0 0 0 INTEGER ()) 0 0
() (CONSTANT (INTEGER 4 0 0 0 INTEGER ()) 0 '8') () 0 () () () 0 0)
41 'dv_shift' 'ifitnot_vars' '' 1 ((VARIABLE UNKNOWN-INTENT UNKNOWN-PROC
UNKNOWN IMPLICIT-SAVE 0 0) (REAL 8 0 0 0 REAL ()) 0 0 () () 0 () () () 0
0)
42 'error' 'ifitnot_vars' '' 1 ((VARIABLE UNKNOWN-INTENT UNKNOWN-PROC
UNKNOWN IMPLICIT-SAVE 0 0 ALLOCATABLE DIMENSION) (REAL 8 0 0 0 REAL ())
0 0 () (1 0 DEFERRED () ()) 0 () () () 0 0)
43 'error_in' 'ifitnot_vars' '' 1 ((VARIABLE UNKNOWN-INTENT UNKNOWN-PROC
UNKNOWN IMPLICIT-SAVE 0 0 ALLOCATABLE DIMENSION) (REAL 8 0 0 0 REAL ())
0 0 () (1 0 DEFERRED () ()) 0 () () () 0 0)
44 'file_chi2_evolution' 'ifitnot_vars' '' 1 ((VARIABLE UNKNOWN-INTENT
UNKNOWN-PROC UNKNOWN IMPLICIT-SAVE 0 0) (CHARACTER 1 0 0 0 CHARACTER ((
CONSTANT (INTEGER 4 0 0 0 INTEGER ()) 0 '256'))) 0 0 () () 0 () () () 0
0)
45 'first_call_visual' 'ifitnot_vars' '' 1 ((VARIABLE UNKNOWN-INTENT
UNKNOWN-PROC UNKNOWN IMPLICIT-SAVE 0 0) (LOGICAL 4 0 0 0 LOGICAL ()) 0 0
() () 0 () () () 0 0)
46 'fit_attempt' 'ifitnot_vars' '' 1 ((VARIABLE UNKNOWN-INTENT
UNKNOWN-PROC UNKNOWN IMPLICIT-SAVE 0 0) (INTEGER 4 0 0 0 INTEGER ()) 0 0
() () 0 () () () 0 0)
47 'fitted_lines' 'ifitnot_vars' '' 1 ((VARIABLE UNKNOWN-INTENT
UNKNOWN-PROC UNKNOWN IMPLICIT-SAVE 0 0) (INTEGER 4 0 0 0 INTEGER ()) 0 0
() () 0 () () () 0 0)
48 'flux_residum' 'ifitnot_vars' '' 1 ((VARIABLE UNKNOWN-INTENT
UNKNOWN-PROC UNKNOWN IMPLICIT-SAVE 0 0 ALLOCATABLE DIMENSION) (REAL 8 0
0 0 REAL ()) 0 0 () (1 0 DEFERRED () ()) 0 () () () 0 0)
49 'ifitnot_vars' 'ifitnot_vars' '' 1 ((MODULE UNKNOWN-INTENT
UNKNOWN-PROC UNKNOWN UNKNOWN 0 0) (UNKNOWN 0 0 0 0 UNKNOWN ()) 0 0 () ()
0 () () () 0 0)
50 'index' 'ifitnot_vars' '' 1 ((VARIABLE UNKNOWN-INTENT UNKNOWN-PROC
UNKNOWN IMPLICIT-SAVE 0 0 ALLOCATABLE DIMENSION) (INTEGER 4 0 0 0
INTEGER ()) 0 0 () (1 0 DEFERRED () ()) 0 () () () 0 0)
51 'inserted_lines' 'ifitnot_vars' '' 1 ((VARIABLE UNKNOWN-INTENT
UNKNOWN-PROC UNKNOWN IMPLICIT-SAVE 0 0) (INTEGER 4 0 0 0 INTEGER ()) 0 0
() () 0 () () () 0 0)
52 'inter_size_px' 'ifitnot_vars' '' 1 ((VARIABLE UNKNOWN-INTENT
UNKNOWN-PROC UNKNOWN IMPLICIT-SAVE 0 0) (INTEGER 4 0 0 0 INTEGER ()) 0 0
() () 0 () () () 0 0)
53 'interval_id' 'ifitnot_vars' '' 1 ((VARIABLE UNKNOWN-INTENT
UNKNOWN-PROC UNKNOWN IMPLICIT-SAVE 0 0) (INTEGER 4 0 0 0 INTEGER ()) 0 0
() () 0 () () () 0 0)
54 'interval_id_str' 'ifitnot_vars' '' 1 ((VARIABLE UNKNOWN-INTENT
UNKNOWN-PROC UNKNOWN IMPLICIT-SAVE 0 0) (CHARACTER 1 0 0 0 CHARACTER ((
CONSTANT (INTEGER 4 0 0 0 INTEGER ()) 0 '3'))) 0 0 () () 0 () () () 0 0)
55 'invalid' 'set_precision' '' 1 ((PARAMETER UNKNOWN-INTENT
UNKNOWN-PROC UNKNOWN IMPLICIT-SAVE 0 0) (CHARACTER 1 0 0 0 CHARACTER ((
CONSTANT (INTEGER 4 0 0 0 INTEGER ()) 0 '20'))) 0 0 () (CONSTANT (
CHARACTER 1 0 0 0 CHARACTER (())) 0 20 'INVALID             ') () 0 () ()
() 0 0)
56 'invalid_i' 'set_precision' '' 1 ((PARAMETER UNKNOWN-INTENT
UNKNOWN-PROC UNKNOWN IMPLICIT-SAVE 0 0) (INTEGER 4 0 0 0 INTEGER ()) 0 0
() (CONSTANT (INTEGER 4 0 0 0 INTEGER ()) 0 '-1234567890') () 0 () () ()
0 0)
57 'invalid_r' 'set_precision' '' 1 ((PARAMETER UNKNOWN-INTENT
UNKNOWN-PROC UNKNOWN IMPLICIT-SAVE 0 0) (REAL 8 0 0 0 REAL ()) 0 0 () (
CONSTANT (REAL 8 0 0 0 REAL ()) 0 '-0.1d42aea2879f2e@83') () 0 () () ()
0 0)
58 'lambda_mrqmin' 'ifitnot_vars' '' 1 ((VARIABLE UNKNOWN-INTENT
UNKNOWN-PROC UNKNOWN IMPLICIT-SAVE 0 0) (REAL 8 0 0 0 REAL ()) 0 0 () ()
0 () () () 0 0)
59 'line_added' 'ifitnot_vars' '' 1 ((VARIABLE UNKNOWN-INTENT
UNKNOWN-PROC UNKNOWN IMPLICIT-SAVE 0 0) (LOGICAL 4 0 0 0 LOGICAL ()) 0 0
() () 0 () () () 0 0)
60 'line_discarded' 'ifitnot_vars' '' 1 ((VARIABLE UNKNOWN-INTENT
UNKNOWN-PROC UNKNOWN IMPLICIT-SAVE 0 0) (LOGICAL 4 0 0 0 LOGICAL ()) 0 0
() () 0 () () () 0 0)
61 'line_irrelevant' 'ifitnot_vars' '' 1 ((VARIABLE UNKNOWN-INTENT
UNKNOWN-PROC UNKNOWN IMPLICIT-SAVE 0 0) (LOGICAL 4 0 0 0 LOGICAL ()) 0 0
() () 0 () () () 0 0)
62 'line_number_evolution' 'ifitnot_vars' '' 1 ((VARIABLE UNKNOWN-INTENT
UNKNOWN-PROC UNKNOWN IMPLICIT-SAVE 0 0 ALLOCATABLE DIMENSION) (REAL 4 0
0 0 REAL ()) 0 0 () (1 0 DEFERRED () ()) 0 () () () 0 0)
63 'listparm' 'ifitnot_vars' '' 1 ((VARIABLE UNKNOWN-INTENT UNKNOWN-PROC
UNKNOWN IMPLICIT-SAVE 0 0 ALLOCATABLE DIMENSION) (INTEGER 4 0 0 0
INTEGER ()) 0 0 () (1 0 DEFERRED () ()) 0 () () () 0 0)
64 'log_lambda_mrqmin_oscillation' 'ifitnot_vars' '' 1 ((VARIABLE
UNKNOWN-INTENT UNKNOWN-PROC UNKNOWN IMPLICIT-SAVE 0 0 DIMENSION) (REAL 8
0 0 0 REAL ()) 0 0 () (1 0 EXPLICIT (CONSTANT (INTEGER 4 0 0 0 INTEGER ())
0 '1') (CONSTANT (INTEGER 4 0 0 0 INTEGER ()) 0 '10')) 0 () () () 0 0)
65 'log_lambda_mrqmin_oscillation_diff' 'ifitnot_vars' '' 1 ((VARIABLE
UNKNOWN-INTENT UNKNOWN-PROC UNKNOWN IMPLICIT-SAVE 0 0) (REAL 8 0 0 0
REAL ()) 0 0 () () 0 () () () 0 0)
66 'max_chi2' 'ifitnot_vars' '' 1 ((VARIABLE UNKNOWN-INTENT UNKNOWN-PROC
UNKNOWN IMPLICIT-SAVE 0 0 DIMENSION) (REAL 8 0 0 0 REAL ()) 0 0 () (1 0
EXPLICIT (CONSTANT (INTEGER 4 0 0 0 INTEGER ()) 0 '1') (CONSTANT (
INTEGER 4 0 0 0 INTEGER ()) 0 '2')) 0 () () () 0 0)
67 'mean_chi2' 'ifitnot_vars' '' 1 ((VARIABLE UNKNOWN-INTENT
UNKNOWN-PROC UNKNOWN IMPLICIT-SAVE 0 0) (REAL 8 0 0 0 REAL ()) 0 0 () ()
0 () () () 0 0)
68 'min_chi2' 'ifitnot_vars' '' 1 ((VARIABLE UNKNOWN-INTENT UNKNOWN-PROC
UNKNOWN IMPLICIT-SAVE 0 0 DIMENSION) (REAL 8 0 0 0 REAL ()) 0 0 () (1 0
EXPLICIT (CONSTANT (INTEGER 4 0 0 0 INTEGER ()) 0 '1') (CONSTANT (
INTEGER 4 0 0 0 INTEGER ()) 0 '2')) 0 () () () 0 0)
69 'mrqmin_iteration' 'ifitnot_vars' '' 1 ((VARIABLE UNKNOWN-INTENT
UNKNOWN-PROC UNKNOWN IMPLICIT-SAVE 0 0) (INTEGER 4 0 0 0 INTEGER ()) 0 0
() () 0 () () () 0 0)
70 'nlines_orig' 'ifitnot_vars' '' 1 ((VARIABLE UNKNOWN-INTENT
UNKNOWN-PROC UNKNOWN IMPLICIT-SAVE 0 0) (INTEGER 4 0 0 0 INTEGER ()) 0 0
() () 0 () () () 0 0)
71 'num_param' 'ifitnot_vars' '' 1 ((VARIABLE UNKNOWN-INTENT
UNKNOWN-PROC UNKNOWN IMPLICIT-SAVE 0 0) (INTEGER 4 0 0 0 INTEGER ()) 0 0
() () 0 () () () 0 0)
72 'num_param_old' 'ifitnot_vars' '' 1 ((VARIABLE UNKNOWN-INTENT
UNKNOWN-PROC UNKNOWN IMPLICIT-SAVE 0 0) (INTEGER 4 0 0 0 INTEGER ()) 0 0
() () 0 () () () 0 0)
73 'num_param_var' 'ifitnot_vars' '' 1 ((VARIABLE UNKNOWN-INTENT
UNKNOWN-PROC UNKNOWN IMPLICIT-SAVE 0 0) (INTEGER 4 0 0 0 INTEGER ()) 0 0
() () 0 () () () 0 0)
74 'outlier_pixels' 'ifitnot_vars' '' 1 ((VARIABLE UNKNOWN-INTENT
UNKNOWN-PROC UNKNOWN IMPLICIT-SAVE 0 0) (INTEGER 4 0 0 0 INTEGER ()) 0 0
() () 0 () () () 0 0)
75 'output_fit_results_debug' 'ifitnot_vars' '' 1 ((VARIABLE
UNKNOWN-INTENT UNKNOWN-PROC UNKNOWN IMPLICIT-SAVE 0 0) (CHARACTER 1 0 0
0 CHARACTER ((CONSTANT (INTEGER 4 0 0 0 INTEGER ()) 0 '128'))) 0 0 () ()
0 () () () 0 0)
76 'output_fit_results_short' 'ifitnot_vars' '' 1 ((VARIABLE
UNKNOWN-INTENT UNKNOWN-PROC UNKNOWN IMPLICIT-SAVE 0 0) (CHARACTER 1 0 0
0 CHARACTER ((CONSTANT (INTEGER 4 0 0 0 INTEGER ()) 0 '128'))) 0 0 () ()
0 () () () 0 0)
77 'output_interval_info_debug' 'ifitnot_vars' '' 1 ((VARIABLE
UNKNOWN-INTENT UNKNOWN-PROC UNKNOWN IMPLICIT-SAVE 0 0) (CHARACTER 1 0 0
0 CHARACTER ((CONSTANT (INTEGER 4 0 0 0 INTEGER ()) 0 '128'))) 0 0 () ()
0 () () () 0 0)
78 'output_interval_info_short' 'ifitnot_vars' '' 1 ((VARIABLE
UNKNOWN-INTENT UNKNOWN-PROC UNKNOWN IMPLICIT-SAVE 0 0) (CHARACTER 1 0 0
0 CHARACTER ((CONSTANT (INTEGER 4 0 0 0 INTEGER ()) 0 '128'))) 0 0 () ()
0 () () () 0 0)
79 'output_mrqmin_iteration_1_debug' 'ifitnot_vars' '' 1 ((VARIABLE
UNKNOWN-INTENT UNKNOWN-PROC UNKNOWN IMPLICIT-SAVE 0 0) (CHARACTER 1 0 0
0 CHARACTER ((CONSTANT (INTEGER 4 0 0 0 INTEGER ()) 0 '256'))) 0 0 () ()
0 () () () 0 0)
80 'output_mrqmin_iteration_1_short' 'ifitnot_vars' '' 1 ((VARIABLE
UNKNOWN-INTENT UNKNOWN-PROC UNKNOWN IMPLICIT-SAVE 0 0) (CHARACTER 1 0 0
0 CHARACTER ((CONSTANT (INTEGER 4 0 0 0 INTEGER ()) 0 '256'))) 0 0 () ()
0 () () () 0 0)
81 'output_mrqmin_iteration_2_debug' 'ifitnot_vars' '' 1 ((VARIABLE
UNKNOWN-INTENT UNKNOWN-PROC UNKNOWN IMPLICIT-SAVE 0 0) (CHARACTER 1 0 0
0 CHARACTER ((CONSTANT (INTEGER 4 0 0 0 INTEGER ()) 0 '256'))) 0 0 () ()
0 () () () 0 0)
82 'output_mrqmin_iteration_2_short' 'ifitnot_vars' '' 1 ((VARIABLE
UNKNOWN-INTENT UNKNOWN-PROC UNKNOWN IMPLICIT-SAVE 0 0) (CHARACTER 1 0 0
0 CHARACTER ((CONSTANT (INTEGER 4 0 0 0 INTEGER ()) 0 '256'))) 0 0 () ()
0 () () () 0 0)
83 'parerr' 'ifitnot_vars' '' 1 ((VARIABLE UNKNOWN-INTENT UNKNOWN-PROC
UNKNOWN IMPLICIT-SAVE 0 0 ALLOCATABLE DIMENSION) (REAL 8 0 0 0 REAL ())
0 0 () (1 0 DEFERRED () ()) 0 () () () 0 0)
84 'parm' 'ifitnot_vars' '' 1 ((VARIABLE UNKNOWN-INTENT UNKNOWN-PROC
UNKNOWN IMPLICIT-SAVE 0 0 ALLOCATABLE DIMENSION) (REAL 8 0 0 0 REAL ())
0 0 () (1 0 DEFERRED () ()) 0 () () () 0 0)
85 'parmold' 'ifitnot_vars' '' 1 ((VARIABLE UNKNOWN-INTENT UNKNOWN-PROC
UNKNOWN IMPLICIT-SAVE 0 0 ALLOCATABLE DIMENSION) (REAL 8 0 0 0 REAL ())
0 0 () (1 0 DEFERRED () ()) 0 () () () 0 0)
86 'px_max' 'ifitnot_vars' '' 1 ((VARIABLE UNKNOWN-INTENT UNKNOWN-PROC
UNKNOWN IMPLICIT-SAVE 0 0) (INTEGER 4 0 0 0 INTEGER ()) 0 0 () () 0 () ()
() 0 0)
87 'px_min' 'ifitnot_vars' '' 1 ((VARIABLE UNKNOWN-INTENT UNKNOWN-PROC
UNKNOWN IMPLICIT-SAVE 0 0) (INTEGER 4 0 0 0 INTEGER ()) 0 0 () () 0 () ()
() 0 0)
88 'real_double' 'set_precision' '' 1 ((VARIABLE UNKNOWN-INTENT
UNKNOWN-PROC UNKNOWN IMPLICIT-SAVE 0 0) (REAL 8 0 0 0 REAL ()) 0 0 () ()
0 () () () 0 0)
89 'real_single' 'set_precision' '' 1 ((VARIABLE UNKNOWN-INTENT
UNKNOWN-PROC UNKNOWN IMPLICIT-SAVE 0 0) (REAL 4 0 0 0 REAL ()) 0 0 () ()
0 () () () 0 0)
90 'selected_int_kind' '(intrinsic)' '' 1 ((PROCEDURE UNKNOWN-INTENT
UNKNOWN-PROC UNKNOWN UNKNOWN 0 0 FUNCTION) (REAL 4 0 0 0 REAL ()) 0 0 ()
() 90 () () () 0 0)
91 'selected_real_kind' '(intrinsic)' '' 1 ((PROCEDURE UNKNOWN-INTENT
UNKNOWN-PROC UNKNOWN UNKNOWN 0 0 FUNCTION) (REAL 4 0 0 0 REAL ()) 0 0 ()
() 91 () () () 0 0)
92 'set_precision' 'set_precision' '' 1 ((MODULE UNKNOWN-INTENT
UNKNOWN-PROC UNKNOWN UNKNOWN 0 0) (UNKNOWN 0 0 0 0 UNKNOWN ()) 0 0 () ()
0 () () () 0 0)
93 'singlei' 'set_precision' '' 1 ((PARAMETER UNKNOWN-INTENT
UNKNOWN-PROC UNKNOWN IMPLICIT-SAVE 0 0) (INTEGER 4 0 0 0 INTEGER ()) 0 0
() (CONSTANT (INTEGER 4 0 0 0 INTEGER ()) 0 '4') () 0 () () () 0 0)
94 'singler' 'set_precision' '' 1 ((PARAMETER UNKNOWN-INTENT
UNKNOWN-PROC UNKNOWN IMPLICIT-SAVE 0 0) (INTEGER 4 0 0 0 INTEGER ()) 0 0
() (CONSTANT (INTEGER 4 0 0 0 INTEGER ()) 0 '4') () 0 () () () 0 0)
95 'success_mrqmin_iteration' 'ifitnot_vars' '' 1 ((VARIABLE
UNKNOWN-INTENT UNKNOWN-PROC UNKNOWN IMPLICIT-SAVE 0 0) (INTEGER 4 0 0 0
INTEGER ()) 0 0 () () 0 () () () 0 0)
96 'tot_iter_per_interval' 'ifitnot_vars' '' 1 ((VARIABLE UNKNOWN-INTENT
UNKNOWN-PROC UNKNOWN IMPLICIT-SAVE 0 0) (INTEGER 4 0 0 0 INTEGER ()) 0 0
() () 0 () () () 0 0)
97 'vel_shift' 'ifitnot_vars' '' 1 ((VARIABLE UNKNOWN-INTENT
UNKNOWN-PROC UNKNOWN IMPLICIT-SAVE 0 0) (INTEGER 4 0 0 0 INTEGER ()) 0 0
() () 0 () () () 0 0)
98 'velfit' 'ifitnot_vars' '' 1 ((VARIABLE UNKNOWN-INTENT UNKNOWN-PROC
UNKNOWN IMPLICIT-SAVE 0 0 ALLOCATABLE DIMENSION) (REAL 8 0 0 0 REAL ())
0 0 () (1 0 DEFERRED () ()) 0 () () () 0 0)
)

('add_more' 0 2 'adding_line' 0 3 'alpha' 0 4 'aod_error' 0 5
'aod_residum' 0 6 'arr_pos_min' 0 7 'array_aux' 0 8 'average_flux_local'
0 9 'average_noise' 0 10 'average_noise_local' 0 11
'average_noise_local_tau' 0 12 'average_sn_local' 0 13 'best_chi2_add' 0
14 'best_reduced_chi2' 0 15 'best_reduced_chi2_succ' 0 16 'check_fit' 0
17 'chi2_before_add' 0 18 'chi2_before_discard' 0 19 'chi2_current' 0 20
'chi2_current_succ' 0 21 'chi2_decrease_iteration' 0 22
'chi2_decrease_rate_average' 0 23 'chi2_decrease_rate_average_array' 0
24 'chi2_decrease_rate_diff' 0 25 'chi2_evolution' 0 26 'chi2_initial' 0
27 'chi2_min_local' 0 28 'chi2_previous' 0 29 'chi2_terms' 0 30 'covar'
0 31 'data_in' 0 32 'degrees_of_freedom' 0 33
'degrees_of_freedom_previous' 0 34 'discard_outliers' 0 35
'discarded_line' 0 36 'discarded_lines' 0 37 'do_fit' 0 38 'doublei' 0
39 'doubler' 0 40 'dv_shift' 0 41 'error' 0 42 'error_in' 0 43
'file_chi2_evolution' 0 44 'first_call_visual' 0 45 'fit_attempt' 0 46
'fitted_lines' 0 47 'flux_residum' 0 48 'ifitnot_vars' 0 49 'index' 0 50
'inserted_lines' 0 51 'inter_size_px' 0 52 'interval_id' 0 53
'interval_id_str' 0 54 'invalid' 0 55 'invalid_i' 0 56 'invalid_r' 0 57
'lambda_mrqmin' 0 58 'line_added' 0 59 'line_discarded' 0 60
'line_irrelevant' 0 61 'line_number_evolution' 0 62 'listparm' 0 63
'log_lambda_mrqmin_oscillation' 0 64 'log_lambda_mrqmin_oscillation_diff'
0 65 'max_chi2' 0 66 'mean_chi2' 0 67 'min_chi2' 0 68 'mrqmin_iteration'
0 69 'nlines_orig' 0 70 'num_param' 0 71 'num_param_old' 0 72
'num_param_var' 0 73 'outlier_pixels' 0 74 'output_fit_results_debug' 0
75 'output_fit_results_short' 0 76 'output_interval_info_debug' 0 77
'output_interval_info_short' 0 78 'output_mrqmin_iteration_1_debug' 0 79
'output_mrqmin_iteration_1_short' 0 80 'output_mrqmin_iteration_2_debug'
0 81 'output_mrqmin_iteration_2_short' 0 82 'parerr' 0 83 'parm' 0 84
'parmold' 0 85 'px_max' 0 86 'px_min' 0 87 'real_double' 0 88
'real_single' 0 89 'selected_int_kind' 0 90 'selected_real_kind' 0 91
'set_precision' 0 92 'singlei' 0 93 'singler' 0 94
'success_mrqmin_iteration' 0 95 'tot_iter_per_interval' 0 96 'vel_shift'
0 97 'velfit' 0 98)
