GFORTRAN module version '10' created from atomic_data.f
MD5:4219993314217302fadc4333814c0224 -- If you edit this, you'll get what you deserve.

(() () () () () () () () () () () () () () () () () () () () () () ()
() () () ())

()

(('load_ion_matrix' 'subs_funcs' 2))

()

()

()

(3 'doublei' 'set_precision' '' 1 ((PARAMETER UNKNOWN-INTENT
UNKNOWN-PROC UNKNOWN IMPLICIT-SAVE 0 0) (INTEGER 4 0 0 0 INTEGER ()) 0 0
() (CONSTANT (INTEGER 4 0 0 0 INTEGER ()) 0 '8') () 0 () () () 0 0)
4 'doubler' 'set_precision' '' 1 ((PARAMETER UNKNOWN-INTENT UNKNOWN-PROC
UNKNOWN IMPLICIT-SAVE 0 0) (INTEGER 4 0 0 0 INTEGER ()) 0 0 () (
CONSTANT (INTEGER 4 0 0 0 INTEGER ()) 0 '8') () 0 () () () 0 0)
5 'invalid' 'set_precision' '' 1 ((PARAMETER UNKNOWN-INTENT UNKNOWN-PROC
UNKNOWN IMPLICIT-SAVE 0 0) (CHARACTER 1 0 0 0 CHARACTER ((CONSTANT (
INTEGER 4 0 0 0 INTEGER ()) 0 '20'))) 0 0 () (CONSTANT (CHARACTER 1 0 0
0 CHARACTER (())) 0 20 'INVALID             ') () 0 () () () 0 0)
6 'invalid_i' 'set_precision' '' 1 ((PARAMETER UNKNOWN-INTENT
UNKNOWN-PROC UNKNOWN IMPLICIT-SAVE 0 0) (INTEGER 4 0 0 0 INTEGER ()) 0 0
() (CONSTANT (INTEGER 4 0 0 0 INTEGER ()) 0 '-1234567890') () 0 () () ()
0 0)
7 'invalid_r' 'set_precision' '' 1 ((PARAMETER UNKNOWN-INTENT
UNKNOWN-PROC UNKNOWN IMPLICIT-SAVE 0 0) (REAL 8 0 0 0 REAL ()) 0 0 () (
CONSTANT (REAL 8 0 0 0 REAL ()) 0 '-0.1d42aea2879f2e@83') () 0 () () ()
0 0)
2 'load_ion_matrix' 'subs_funcs' '' 1 ((PROCEDURE UNKNOWN-INTENT
MODULE-PROC BODY UNKNOWN 0 0 EXTERNAL SUBROUTINE GENERIC ALWAYS_EXPLICIT)
(UNKNOWN 0 0 0 0 UNKNOWN ()) 8 0 (9 10 11 12) () 0 () () () 0 0)
13 'real_double' 'set_precision' '' 1 ((VARIABLE UNKNOWN-INTENT
UNKNOWN-PROC UNKNOWN IMPLICIT-SAVE 0 0) (REAL 8 0 0 0 REAL ()) 0 0 () ()
0 () () () 0 0)
14 'real_single' 'set_precision' '' 1 ((VARIABLE UNKNOWN-INTENT
UNKNOWN-PROC UNKNOWN IMPLICIT-SAVE 0 0) (REAL 4 0 0 0 REAL ()) 0 0 () ()
0 () () () 0 0)
15 'selected_int_kind' '(intrinsic)' '' 1 ((PROCEDURE UNKNOWN-INTENT
UNKNOWN-PROC UNKNOWN UNKNOWN 0 0 FUNCTION) (REAL 4 0 0 0 REAL ()) 0 0 ()
() 15 () () () 0 0)
16 'selected_real_kind' '(intrinsic)' '' 1 ((PROCEDURE UNKNOWN-INTENT
UNKNOWN-PROC UNKNOWN UNKNOWN 0 0 FUNCTION) (REAL 4 0 0 0 REAL ()) 0 0 ()
() 16 () () () 0 0)
17 'set_precision' 'set_precision' '' 1 ((MODULE UNKNOWN-INTENT
UNKNOWN-PROC UNKNOWN UNKNOWN 0 0) (UNKNOWN 0 0 0 0 UNKNOWN ()) 0 0 () ()
0 () () () 0 0)
18 'singlei' 'set_precision' '' 1 ((PARAMETER UNKNOWN-INTENT
UNKNOWN-PROC UNKNOWN IMPLICIT-SAVE 0 0) (INTEGER 4 0 0 0 INTEGER ()) 0 0
() (CONSTANT (INTEGER 4 0 0 0 INTEGER ()) 0 '4') () 0 () () () 0 0)
19 'singler' 'set_precision' '' 1 ((PARAMETER UNKNOWN-INTENT
UNKNOWN-PROC UNKNOWN IMPLICIT-SAVE 0 0) (INTEGER 4 0 0 0 INTEGER ()) 0 0
() (CONSTANT (INTEGER 4 0 0 0 INTEGER ()) 0 '4') () 0 () () () 0 0)
20 'subs_funcs' 'subs_funcs' '' 1 ((MODULE UNKNOWN-INTENT UNKNOWN-PROC
UNKNOWN UNKNOWN 0 0) (UNKNOWN 0 0 0 0 UNKNOWN ()) 0 0 () () 0 () () () 0
0)
9 'atomname' '' '' 8 ((VARIABLE UNKNOWN-INTENT UNKNOWN-PROC UNKNOWN
UNKNOWN 0 0 DIMENSION DUMMY) (CHARACTER 1 0 0 0 CHARACTER ((CONSTANT (
INTEGER 4 0 0 0 INTEGER ()) 0 '2'))) 0 0 () (1 0 EXPLICIT (CONSTANT (
INTEGER 4 0 0 0 INTEGER ()) 0 '1') (VARIABLE (INTEGER 4 0 0 0 INTEGER ())
0 10 ())) 0 () () () 0 0)
10 'numatoms' '' '' 8 ((VARIABLE IN UNKNOWN-PROC UNKNOWN UNKNOWN 0 0
DUMMY) (INTEGER 4 0 0 0 INTEGER ()) 0 0 () () 0 () () () 0 0)
11 'ionname' '' '' 8 ((VARIABLE INOUT UNKNOWN-PROC UNKNOWN UNKNOWN 0 0
ALLOCATABLE DIMENSION DUMMY) (CHARACTER 1 0 0 0 CHARACTER ((CONSTANT (
INTEGER 4 0 0 0 INTEGER ()) 0 '4'))) 0 0 () (2 0 DEFERRED () () () ()) 0
() () () 0 0)
12 'numions' '' '' 8 ((VARIABLE IN UNKNOWN-PROC UNKNOWN UNKNOWN 0 0
DIMENSION DUMMY) (INTEGER 4 0 0 0 INTEGER ()) 0 0 () (1 0 EXPLICIT (
CONSTANT (INTEGER 4 0 0 0 INTEGER ()) 0 '1') (VARIABLE (INTEGER 4 0 0 0
INTEGER ()) 0 10 ())) 0 () () () 0 0)
)

('doublei' 0 3 'doubler' 0 4 'invalid' 0 5 'invalid_i' 0 6 'invalid_r' 0
7 'load_ion_matrix' 0 2 'real_double' 0 13 'real_single' 0 14
'selected_int_kind' 0 15 'selected_real_kind' 0 16 'set_precision' 0 17
'singlei' 0 18 'singler' 0 19 'subs_funcs' 0 20)
