GFORTRAN module version '10' created from eqwt_modules.f
MD5:c3a7ddee9ec024b0855004cab824b250 -- If you edit this, you'll get what you deserve.

(() () () () () () () () () () () () () () () () () () () () () () () ()
() () ())

()

()

()

()

()

(2 'alambda' 'variables' '' 1 ((VARIABLE UNKNOWN-INTENT UNKNOWN-PROC
UNKNOWN IMPLICIT-SAVE 0 0 DIMENSION) (REAL 8 0 0 0 REAL ()) 0 0 () (1 0
EXPLICIT (CONSTANT (INTEGER 4 0 0 0 INTEGER ()) 0 '1') (CONSTANT (
INTEGER 4 0 0 0 INTEGER ()) 0 '700000')) 0 () () () 0 0)
3 'alambdamax' 'variables' '' 1 ((VARIABLE UNKNOWN-INTENT UNKNOWN-PROC
UNKNOWN UNKNOWN 0 0) (REAL 8 0 0 0 REAL ()) 0 0 () () 0 () () () 0 0)
4 'alambdamin' 'variables' '' 1 ((VARIABLE UNKNOWN-INTENT UNKNOWN-PROC
UNKNOWN UNKNOWN 0 0) (REAL 8 0 0 0 REAL ()) 0 0 () () 0 () () () 0 0)
5 'alambdastep' 'variables' '' 1 ((VARIABLE UNKNOWN-INTENT UNKNOWN-PROC
UNKNOWN UNKNOWN 0 0) (REAL 8 0 0 0 REAL ()) 0 0 () () 0 () () () 0 0)
6 'alognhi' 'variables' '' 1 ((VARIABLE UNKNOWN-INTENT UNKNOWN-PROC
UNKNOWN UNKNOWN 0 0) (REAL 8 0 0 0 REAL ()) 0 0 () () 0 () () () 0 0)
7 'alognhimin' 'variables' '' 1 ((VARIABLE UNKNOWN-INTENT UNKNOWN-PROC
UNKNOWN UNKNOWN 0 0) (REAL 8 0 0 0 REAL ()) 0 0 () () 0 () () () 0 0)
8 'alyalpha' 'variables' '' 1 ((PARAMETER UNKNOWN-INTENT UNKNOWN-PROC
UNKNOWN IMPLICIT-SAVE 0 0) (REAL 8 0 0 0 REAL ()) 0 0 () (CONSTANT (
REAL 8 0 0 0 REAL ()) 0 '0.4bfab851eb8520@3') () 0 () () () 0 0)
9 'alylim' 'variables' '' 1 ((PARAMETER UNKNOWN-INTENT UNKNOWN-PROC
UNKNOWN IMPLICIT-SAVE 0 0) (REAL 8 0 0 0 REAL ()) 0 0 () (CONSTANT (
REAL 8 0 0 0 REAL ()) 0 '0.38fc0000000000@3') () 0 () () () 0 0)
10 'anhi' 'variables' '' 1 ((VARIABLE UNKNOWN-INTENT UNKNOWN-PROC
UNKNOWN UNKNOWN 0 0) (REAL 8 0 0 0 REAL ()) 0 0 () () 0 () () () 0 0)
11 'b' 'variables' '' 1 ((VARIABLE UNKNOWN-INTENT UNKNOWN-PROC UNKNOWN
UNKNOWN 0 0) (REAL 8 0 0 0 REAL ()) 0 0 () () 0 () () () 0 0)
12 'b_value' 'variables' '' 1 ((VARIABLE UNKNOWN-INTENT UNKNOWN-PROC
UNKNOWN UNKNOWN 0 0) (REAL 8 0 0 0 REAL ()) 0 0 () () 0 () () () 0 0)
13 'bmin' 'variables' '' 1 ((VARIABLE UNKNOWN-INTENT UNKNOWN-PROC
UNKNOWN UNKNOWN 0 0) (REAL 8 0 0 0 REAL ()) 0 0 () () 0 () () () 0 0)
14 'clight' 'variables' '' 1 ((PARAMETER UNKNOWN-INTENT UNKNOWN-PROC
UNKNOWN IMPLICIT-SAVE 0 0) (REAL 8 0 0 0 REAL ()) 0 0 () (CONSTANT (
REAL 8 0 0 0 REAL ()) 0 '0.6fae33cc000000@9') () 0 () () () 0 0)
15 'echarge' 'variables' '' 1 ((PARAMETER UNKNOWN-INTENT UNKNOWN-PROC
UNKNOWN IMPLICIT-SAVE 0 0) (REAL 8 0 0 0 REAL ()) 0 0 () (CONSTANT (
REAL 8 0 0 0 REAL ()) 0 '0.2f485ea92c8ff6@-15') () 0 () () () 0 0)
16 'emass' 'variables' '' 1 ((PARAMETER UNKNOWN-INTENT UNKNOWN-PROC
UNKNOWN IMPLICIT-SAVE 0 0) (REAL 8 0 0 0 REAL ()) 0 0 () (CONSTANT (
REAL 8 0 0 0 REAL ()) 0 '0.1279a9c8073d8b@-24') () 0 () () () 0 0)
17 'eradius' 'variables' '' 1 ((PARAMETER UNKNOWN-INTENT UNKNOWN-PROC
UNKNOWN IMPLICIT-SAVE 0 0) (REAL 8 0 0 0 REAL ()) 0 0 () (CONSTANT (
REAL 8 0 0 0 REAL ()) 0 '0.4f4a9fce3970e8@-10') () 0 () () () 0 0)
18 'flux' 'variables' '' 1 ((VARIABLE UNKNOWN-INTENT UNKNOWN-PROC
UNKNOWN IMPLICIT-SAVE 0 0 DIMENSION) (REAL 8 0 0 0 REAL ()) 0 0 () (1 0
EXPLICIT (CONSTANT (INTEGER 4 0 0 0 INTEGER ()) 0 '1') (CONSTANT (
INTEGER 4 0 0 0 INTEGER ()) 0 '700000')) 0 () () () 0 0)
19 'fluxmin' 'variables' '' 1 ((PARAMETER UNKNOWN-INTENT UNKNOWN-PROC
UNKNOWN IMPLICIT-SAVE 0 0) (REAL 8 0 0 0 REAL ()) 0 0 () (CONSTANT (
REAL 8 0 0 0 REAL ()) 0 '0.391704310a8ace@-36') () 0 () () () 0 0)
20 'fvalue' 'variables' '' 1 ((VARIABLE UNKNOWN-INTENT UNKNOWN-PROC
UNKNOWN UNKNOWN 0 0) (REAL 8 0 0 0 REAL ()) 0 0 () () 0 () () () 0 0)
21 'gamma' 'variables' '' 1 ((VARIABLE UNKNOWN-INTENT UNKNOWN-PROC
UNKNOWN UNKNOWN 0 0) (REAL 8 0 0 0 REAL ()) 0 0 () () 0 () () () 0 0)
22 'homefile' 'variables' '' 1 ((VARIABLE UNKNOWN-INTENT UNKNOWN-PROC
UNKNOWN IMPLICIT-SAVE 0 0) (CHARACTER 1 0 0 0 CHARACTER ((CONSTANT (
INTEGER 4 0 0 0 INTEGER ()) 0 '128'))) 0 0 () () 0 () () () 0 0)
23 'infile' 'variables' '' 1 ((VARIABLE UNKNOWN-INTENT UNKNOWN-PROC
UNKNOWN IMPLICIT-SAVE 0 0) (CHARACTER 1 0 0 0 CHARACTER ((CONSTANT (
INTEGER 4 0 0 0 INTEGER ()) 0 '128'))) 0 0 () () 0 () () () 0 0)
24 'infile2' 'variables' '' 1 ((VARIABLE UNKNOWN-INTENT UNKNOWN-PROC
UNKNOWN IMPLICIT-SAVE 0 0) (CHARACTER 1 0 0 0 CHARACTER ((CONSTANT (
INTEGER 4 0 0 0 INTEGER ()) 0 '128'))) 0 0 () () 0 () () () 0 0)
25 'ion_name' 'variables' '' 1 ((VARIABLE UNKNOWN-INTENT UNKNOWN-PROC
UNKNOWN IMPLICIT-SAVE 0 0) (CHARACTER 1 0 0 0 CHARACTER ((CONSTANT (
INTEGER 4 0 0 0 INTEGER ()) 0 '10'))) 0 0 () () 0 () () () 0 0)
26 'ion_str' 'variables' '' 1 ((VARIABLE UNKNOWN-INTENT UNKNOWN-PROC
UNKNOWN IMPLICIT-SAVE 0 0) (CHARACTER 1 0 0 0 CHARACTER ((CONSTANT (
INTEGER 4 0 0 0 INTEGER ()) 0 '10'))) 0 0 () () 0 () () () 0 0)
27 'ipoints' 'variables' '' 1 ((PARAMETER UNKNOWN-INTENT UNKNOWN-PROC
UNKNOWN IMPLICIT-SAVE 0 0) (INTEGER 4 0 0 0 INTEGER ()) 0 0 () (
CONSTANT (INTEGER 4 0 0 0 INTEGER ()) 0 '700000') () 0 () () () 0 0)
28 'log_col_dens' 'variables' '' 1 ((VARIABLE UNKNOWN-INTENT
UNKNOWN-PROC UNKNOWN UNKNOWN 0 0) (REAL 8 0 0 0 REAL ()) 0 0 () () 0 ()
() () 0 0)
29 'n_ion' 'variables' '' 1 ((VARIABLE UNKNOWN-INTENT UNKNOWN-PROC
UNKNOWN UNKNOWN 0 0) (REAL 8 0 0 0 REAL ()) 0 0 () () 0 () () () 0 0)
30 'ncount' 'variables' '' 1 ((VARIABLE UNKNOWN-INTENT UNKNOWN-PROC
UNKNOWN IMPLICIT-SAVE 0 0) (INTEGER 4 0 0 0 INTEGER ()) 0 0 () () 0 () ()
() 0 0)
31 'pi' 'variables' '' 1 ((PARAMETER UNKNOWN-INTENT UNKNOWN-PROC UNKNOWN
IMPLICIT-SAVE 0 0) (REAL 8 0 0 0 REAL ()) 0 0 () (CONSTANT (REAL 8 0 0 0
REAL ()) 0 '0.3243f705857afe@1') () 0 () () () 0 0)
32 'sqrtpi' 'variables' '' 1 ((VARIABLE UNKNOWN-INTENT UNKNOWN-PROC
UNKNOWN UNKNOWN 0 0) (REAL 8 0 0 0 REAL ()) 0 0 () () 0 () () () 0 0)
33 'sqrtpiinv' 'variables' '' 1 ((VARIABLE UNKNOWN-INTENT UNKNOWN-PROC
UNKNOWN UNKNOWN 0 0) (REAL 8 0 0 0 REAL ()) 0 0 () () 0 () () () 0 0)
34 'stepb' 'variables' '' 1 ((VARIABLE UNKNOWN-INTENT UNKNOWN-PROC
UNKNOWN UNKNOWN 0 0) (REAL 8 0 0 0 REAL ()) 0 0 () () 0 () () () 0 0)
35 'stepnhi' 'variables' '' 1 ((VARIABLE UNKNOWN-INTENT UNKNOWN-PROC
UNKNOWN UNKNOWN 0 0) (REAL 8 0 0 0 REAL ()) 0 0 () () 0 () () () 0 0)
36 'variables' 'variables' '' 1 ((MODULE UNKNOWN-INTENT UNKNOWN-PROC
UNKNOWN UNKNOWN 0 0) (UNKNOWN 0 0 0 0 UNKNOWN ()) 0 0 () () 0 () () () 0
0)
37 'wl_central' 'variables' '' 1 ((VARIABLE UNKNOWN-INTENT UNKNOWN-PROC
UNKNOWN UNKNOWN 0 0) (REAL 8 0 0 0 REAL ()) 0 0 () () 0 () () () 0 0)
)

('alambda' 0 2 'alambdamax' 0 3 'alambdamin' 0 4 'alambdastep' 0 5
'alognhi' 0 6 'alognhimin' 0 7 'alyalpha' 0 8 'alylim' 0 9 'anhi' 0 10 'b'
0 11 'b_value' 0 12 'bmin' 0 13 'clight' 0 14 'echarge' 0 15 'emass' 0
16 'eradius' 0 17 'flux' 0 18 'fluxmin' 0 19 'fvalue' 0 20 'gamma' 0 21
'homefile' 0 22 'infile' 0 23 'infile2' 0 24 'ion_name' 0 25 'ion_str' 0
26 'ipoints' 0 27 'log_col_dens' 0 28 'n_ion' 0 29 'ncount' 0 30 'pi' 0
31 'sqrtpi' 0 32 'sqrtpiinv' 0 33 'stepb' 0 34 'stepnhi' 0 35 'variables'
0 36 'wl_central' 0 37)
