GFORTRAN module version '10' created from ps_modules.f
MD5:cdcb7a63bcf81b13a03467809b352b47 -- If you edit this, you'll get what you deserve.

(() () () () () () () () () () () () () () () () () () () () () () () ()
() () ())

()

()

()

()

()

(2 'arrays_fit' 'arrays_fit' '' 1 ((MODULE UNKNOWN-INTENT UNKNOWN-PROC
UNKNOWN UNKNOWN 0 0) (UNKNOWN 0 0 0 0 UNKNOWN ()) 0 0 () () 0 () () () 0
0)
3 'b_value' 'arrays_fit' '' 1 ((VARIABLE UNKNOWN-INTENT UNKNOWN-PROC
UNKNOWN IMPLICIT-SAVE 0 0 ALLOCATABLE DIMENSION) (REAL 8 0 0 0 REAL ())
0 0 () (1 0 DEFERRED () ()) 0 () () () 0 0)
4 'db_value' 'arrays_fit' '' 1 ((VARIABLE UNKNOWN-INTENT UNKNOWN-PROC
UNKNOWN IMPLICIT-SAVE 0 0 ALLOCATABLE DIMENSION) (REAL 8 0 0 0 REAL ())
0 0 () (1 0 DEFERRED () ()) 0 () () () 0 0)
5 'dnion' 'arrays_fit' '' 1 ((VARIABLE UNKNOWN-INTENT UNKNOWN-PROC
UNKNOWN IMPLICIT-SAVE 0 0 ALLOCATABLE DIMENSION) (REAL 8 0 0 0 REAL ())
0 0 () (1 0 DEFERRED () ()) 0 () () () 0 0)
6 'dv_line' 'arrays_fit' '' 1 ((VARIABLE UNKNOWN-INTENT UNKNOWN-PROC
UNKNOWN IMPLICIT-SAVE 0 0 ALLOCATABLE DIMENSION) (REAL 8 0 0 0 REAL ())
0 0 () (1 0 DEFERRED () ()) 0 () () () 0 0)
7 'equiv_width_ma' 'arrays_fit' '' 1 ((VARIABLE UNKNOWN-INTENT
UNKNOWN-PROC UNKNOWN IMPLICIT-SAVE 0 0 ALLOCATABLE DIMENSION) (REAL 8 0
0 0 REAL ()) 0 0 () (1 0 DEFERRED () ()) 0 () () () 0 0)
8 'flux_fit' 'arrays_fit' '' 1 ((VARIABLE UNKNOWN-INTENT UNKNOWN-PROC
UNKNOWN IMPLICIT-SAVE 0 0 ALLOCATABLE DIMENSION) (REAL 8 0 0 0 REAL ())
0 0 () (1 0 DEFERRED () ()) 0 () () () 0 0)
9 'log10_nion' 'arrays_fit' '' 1 ((VARIABLE UNKNOWN-INTENT UNKNOWN-PROC
UNKNOWN IMPLICIT-SAVE 0 0 ALLOCATABLE DIMENSION) (REAL 8 0 0 0 REAL ())
0 0 () (1 0 DEFERRED () ()) 0 () () () 0 0)
10 'v_line' 'arrays_fit' '' 1 ((VARIABLE UNKNOWN-INTENT UNKNOWN-PROC
UNKNOWN IMPLICIT-SAVE 0 0 ALLOCATABLE DIMENSION) (REAL 8 0 0 0 REAL ())
0 0 () (1 0 DEFERRED () ()) 0 () () () 0 0)
11 'wl_line' 'arrays_fit' '' 1 ((VARIABLE UNKNOWN-INTENT UNKNOWN-PROC
UNKNOWN IMPLICIT-SAVE 0 0 ALLOCATABLE DIMENSION) (REAL 8 0 0 0 REAL ())
0 0 () (1 0 DEFERRED () ()) 0 () () () 0 0)
12 'z_abs' 'arrays_fit' '' 1 ((VARIABLE UNKNOWN-INTENT UNKNOWN-PROC
UNKNOWN IMPLICIT-SAVE 0 0 ALLOCATABLE DIMENSION) (REAL 8 0 0 0 REAL ())
0 0 () (1 0 DEFERRED () ()) 0 () () () 0 0)
)

('arrays_fit' 0 2 'b_value' 0 3 'db_value' 0 4 'dnion' 0 5 'dv_line' 0 6
'equiv_width_ma' 0 7 'flux_fit' 0 8 'log10_nion' 0 9 'v_line' 0 10
'wl_line' 0 11 'z_abs' 0 12)
