GFORTRAN module version '10' created from ps_modules.f
MD5:858269901679cc7be8e3bd682e6e1d71 -- If you edit this, you'll get what you deserve.

(() () () () () () () () () () () () () () () () () () () () () () () ()
() () ())

()

()

()

()

()

(2 'attributename' 'common_strings' '' 1 ((VARIABLE UNKNOWN-INTENT
UNKNOWN-PROC UNKNOWN IMPLICIT-SAVE 0 0) (CHARACTER 1 0 0 0 CHARACTER ((
CONSTANT (INTEGER 4 0 0 0 INTEGER ()) 0 '256'))) 0 0 () () 0 () () () 0
0)
3 'average_sn_str' 'common_strings' '' 1 ((VARIABLE UNKNOWN-INTENT
UNKNOWN-PROC UNKNOWN IMPLICIT-SAVE 0 0) (CHARACTER 1 0 0 0 CHARACTER ((
CONSTANT (INTEGER 4 0 0 0 INTEGER ()) 0 '256'))) 0 0 () () 0 () () () 0
0)
4 'common_strings' 'common_strings' '' 1 ((MODULE UNKNOWN-INTENT
UNKNOWN-PROC UNKNOWN UNKNOWN 0 0) (UNKNOWN 0 0 0 0 UNKNOWN ()) 0 0 () ()
0 () () () 0 0)
5 'comstr' 'common_strings' '' 1 ((VARIABLE UNKNOWN-INTENT UNKNOWN-PROC
UNKNOWN IMPLICIT-SAVE 0 0) (CHARACTER 1 0 0 0 CHARACTER ((CONSTANT (
INTEGER 4 0 0 0 INTEGER ()) 0 '256'))) 0 0 () () 0 () () () 0 0)
6 'datasetname' 'common_strings' '' 1 ((VARIABLE UNKNOWN-INTENT
UNKNOWN-PROC UNKNOWN IMPLICIT-SAVE 0 0) (CHARACTER 1 0 0 0 CHARACTER ((
CONSTANT (INTEGER 4 0 0 0 INTEGER ()) 0 '256'))) 0 0 () () 0 () () () 0
0)
7 'dummy_str' 'common_strings' '' 1 ((VARIABLE UNKNOWN-INTENT
UNKNOWN-PROC UNKNOWN IMPLICIT-SAVE 0 0) (CHARACTER 1 0 0 0 CHARACTER ((
CONSTANT (INTEGER 4 0 0 0 INTEGER ()) 0 '256'))) 0 0 () () 0 () () () 0
0)
8 'errmsg' 'common_strings' '' 1 ((VARIABLE UNKNOWN-INTENT UNKNOWN-PROC
UNKNOWN IMPLICIT-SAVE 0 0) (CHARACTER 1 0 0 0 CHARACTER ((CONSTANT (
INTEGER 4 0 0 0 INTEGER ()) 0 '256'))) 0 0 () () 0 () () () 0 0)
9 'fitfile' 'common_strings' '' 1 ((VARIABLE UNKNOWN-INTENT UNKNOWN-PROC
UNKNOWN IMPLICIT-SAVE 0 0) (CHARACTER 1 0 0 0 CHARACTER ((CONSTANT (
INTEGER 4 0 0 0 INTEGER ()) 0 '256'))) 0 0 () () 0 () () () 0 0)
10 'groupname' 'common_strings' '' 1 ((VARIABLE UNKNOWN-INTENT
UNKNOWN-PROC UNKNOWN IMPLICIT-SAVE 0 0) (CHARACTER 1 0 0 0 CHARACTER ((
CONSTANT (INTEGER 4 0 0 0 INTEGER ()) 0 '256'))) 0 0 () () 0 () () () 0
0)
11 'identifier' 'common_strings' '' 1 ((VARIABLE UNKNOWN-INTENT
UNKNOWN-PROC UNKNOWN IMPLICIT-SAVE 0 0) (CHARACTER 1 0 0 0 CHARACTER ((
CONSTANT (INTEGER 4 0 0 0 INTEGER ()) 0 '32'))) 0 0 () () 0 () () () 0 0)
12 'infile' 'common_strings' '' 1 ((VARIABLE UNKNOWN-INTENT UNKNOWN-PROC
UNKNOWN IMPLICIT-SAVE 0 0) (CHARACTER 1 0 0 0 CHARACTER ((CONSTANT (
INTEGER 4 0 0 0 INTEGER ()) 0 '256'))) 0 0 () () 0 () () () 0 0)
13 'ion' 'common_strings' '' 1 ((VARIABLE UNKNOWN-INTENT UNKNOWN-PROC
UNKNOWN IMPLICIT-SAVE 0 0) (CHARACTER 1 0 0 0 CHARACTER ((CONSTANT (
INTEGER 4 0 0 0 INTEGER ()) 0 '32'))) 0 0 () () 0 () () () 0 0)
14 'ion_in' 'common_strings' '' 1 ((VARIABLE UNKNOWN-INTENT UNKNOWN-PROC
UNKNOWN IMPLICIT-SAVE 0 0) (CHARACTER 1 0 0 0 CHARACTER ((CONSTANT (
INTEGER 4 0 0 0 INTEGER ()) 0 '32'))) 0 0 () () 0 () () () 0 0)
15 'lines_detected_str' 'common_strings' '' 1 ((VARIABLE UNKNOWN-INTENT
UNKNOWN-PROC UNKNOWN IMPLICIT-SAVE 0 0) (CHARACTER 1 0 0 0 CHARACTER ((
CONSTANT (INTEGER 4 0 0 0 INTEGER ()) 0 '256'))) 0 0 () () 0 () () () 0
0)
16 'linesfile' 'common_strings' '' 1 ((VARIABLE UNKNOWN-INTENT
UNKNOWN-PROC UNKNOWN IMPLICIT-SAVE 0 0) (CHARACTER 1 0 0 0 CHARACTER ((
CONSTANT (INTEGER 4 0 0 0 INTEGER ()) 0 '256'))) 0 0 () () 0 () () () 0
0)
17 'noise_added' 'common_strings' '' 1 ((VARIABLE UNKNOWN-INTENT
UNKNOWN-PROC UNKNOWN IMPLICIT-SAVE 0 0) (CHARACTER 1 0 0 0 CHARACTER ((
CONSTANT (INTEGER 4 0 0 0 INTEGER ()) 0 '32'))) 0 0 () () 0 () () () 0 0)
18 'out_type' 'common_strings' '' 1 ((VARIABLE UNKNOWN-INTENT
UNKNOWN-PROC UNKNOWN IMPLICIT-SAVE 0 0) (CHARACTER 1 0 0 0 CHARACTER ((
CONSTANT (INTEGER 4 0 0 0 INTEGER ()) 0 '32'))) 0 0 () () 0 () () () 0 0)
19 'plotfile' 'common_strings' '' 1 ((VARIABLE UNKNOWN-INTENT
UNKNOWN-PROC UNKNOWN IMPLICIT-SAVE 0 0) (CHARACTER 1 0 0 0 CHARACTER ((
CONSTANT (INTEGER 4 0 0 0 INTEGER ()) 0 '256'))) 0 0 () () 0 () () () 0
0)
20 'prefix' 'common_strings' '' 1 ((VARIABLE UNKNOWN-INTENT UNKNOWN-PROC
UNKNOWN IMPLICIT-SAVE 0 0) (CHARACTER 1 0 0 0 CHARACTER ((CONSTANT (
INTEGER 4 0 0 0 INTEGER ()) 0 '256'))) 0 0 () () 0 () () () 0 0)
21 'profile_str' 'common_strings' '' 1 ((VARIABLE UNKNOWN-INTENT
UNKNOWN-PROC UNKNOWN IMPLICIT-SAVE 0 0) (CHARACTER 1 0 0 0 CHARACTER ((
CONSTANT (INTEGER 4 0 0 0 INTEGER ()) 0 '256'))) 0 0 () () 0 () () () 0
0)
22 'psfile' 'common_strings' '' 1 ((VARIABLE UNKNOWN-INTENT UNKNOWN-PROC
UNKNOWN IMPLICIT-SAVE 0 0) (CHARACTER 1 0 0 0 CHARACTER ((CONSTANT (
INTEGER 4 0 0 0 INTEGER ()) 0 '256'))) 0 0 () () 0 () () () 0 0)
23 'regionsfile' 'common_strings' '' 1 ((VARIABLE UNKNOWN-INTENT
UNKNOWN-PROC UNKNOWN IMPLICIT-SAVE 0 0) (CHARACTER 1 0 0 0 CHARACTER ((
CONSTANT (INTEGER 4 0 0 0 INTEGER ()) 0 '256'))) 0 0 () () 0 () () () 0
0)
24 'simulation' 'common_strings' '' 1 ((VARIABLE UNKNOWN-INTENT
UNKNOWN-PROC UNKNOWN IMPLICIT-SAVE 0 0) (CHARACTER 1 0 0 0 CHARACTER ((
CONSTANT (INTEGER 4 0 0 0 INTEGER ()) 0 '256'))) 0 0 () () 0 () () () 0
0)
25 'spec_id' 'common_strings' '' 1 ((VARIABLE UNKNOWN-INTENT
UNKNOWN-PROC UNKNOWN IMPLICIT-SAVE 0 0) (CHARACTER 1 0 0 0 CHARACTER ((
CONSTANT (INTEGER 4 0 0 0 INTEGER ()) 0 '32'))) 0 0 () () 0 () () () 0 0)
26 'specfile' 'common_strings' '' 1 ((VARIABLE UNKNOWN-INTENT
UNKNOWN-PROC UNKNOWN IMPLICIT-SAVE 0 0) (CHARACTER 1 0 0 0 CHARACTER ((
CONSTANT (INTEGER 4 0 0 0 INTEGER ()) 0 '256'))) 0 0 () () 0 () () () 0
0)
27 'specfile_dir' 'common_strings' '' 1 ((VARIABLE UNKNOWN-INTENT
UNKNOWN-PROC UNKNOWN IMPLICIT-SAVE 0 0) (CHARACTER 1 0 0 0 CHARACTER ((
CONSTANT (INTEGER 4 0 0 0 INTEGER ()) 0 '256'))) 0 0 () () 0 () () () 0
0)
28 'specfile_prefix' 'common_strings' '' 1 ((VARIABLE UNKNOWN-INTENT
UNKNOWN-PROC UNKNOWN IMPLICIT-SAVE 0 0) (CHARACTER 1 0 0 0 CHARACTER ((
CONSTANT (INTEGER 4 0 0 0 INTEGER ()) 0 '256'))) 0 0 () () 0 () () () 0
0)
29 'spectrum_fitted_str' 'common_strings' '' 1 ((VARIABLE UNKNOWN-INTENT
UNKNOWN-PROC UNKNOWN IMPLICIT-SAVE 0 0) (CHARACTER 1 0 0 0 CHARACTER ((
CONSTANT (INTEGER 4 0 0 0 INTEGER ()) 0 '256'))) 0 0 () () 0 () () () 0
0)
30 'spectrum_shifted_str' 'common_strings' '' 1 ((VARIABLE
UNKNOWN-INTENT UNKNOWN-PROC UNKNOWN IMPLICIT-SAVE 0 0) (CHARACTER 1 0 0
0 CHARACTER ((CONSTANT (INTEGER 4 0 0 0 INTEGER ()) 0 '256'))) 0 0 () ()
0 () () () 0 0)
31 'spectrum_written_str' 'common_strings' '' 1 ((VARIABLE
UNKNOWN-INTENT UNKNOWN-PROC UNKNOWN IMPLICIT-SAVE 0 0) (CHARACTER 1 0 0
0 CHARACTER ((CONSTANT (INTEGER 4 0 0 0 INTEGER ()) 0 '256'))) 0 0 () ()
0 () () () 0 0)
32 'spectype' 'common_strings' '' 1 ((VARIABLE UNKNOWN-INTENT
UNKNOWN-PROC UNKNOWN IMPLICIT-SAVE 0 0) (CHARACTER 1 0 0 0 CHARACTER ((
CONSTANT (INTEGER 4 0 0 0 INTEGER ()) 0 '32'))) 0 0 () () 0 () () () 0 0)
33 'statmsg' 'common_strings' '' 1 ((VARIABLE UNKNOWN-INTENT
UNKNOWN-PROC UNKNOWN IMPLICIT-SAVE 0 0) (CHARACTER 1 0 0 0 CHARACTER ((
CONSTANT (INTEGER 4 0 0 0 INTEGER ()) 0 '256'))) 0 0 () () 0 () () () 0
0)
34 'str_inset' 'common_strings' '' 1 ((VARIABLE UNKNOWN-INTENT
UNKNOWN-PROC UNKNOWN IMPLICIT-SAVE 0 0) (CHARACTER 1 0 0 0 CHARACTER ((
CONSTANT (INTEGER 4 0 0 0 INTEGER ()) 0 '5'))) 0 0 () () 0 () () () 0 0)
35 'warnmsg' 'common_strings' '' 1 ((VARIABLE UNKNOWN-INTENT
UNKNOWN-PROC UNKNOWN IMPLICIT-SAVE 0 0) (CHARACTER 1 0 0 0 CHARACTER ((
CONSTANT (INTEGER 4 0 0 0 INTEGER ()) 0 '256'))) 0 0 () () 0 () () () 0
0)
)

('attributename' 0 2 'average_sn_str' 0 3 'common_strings' 0 4 'comstr'
0 5 'datasetname' 0 6 'dummy_str' 0 7 'errmsg' 0 8 'fitfile' 0 9
'groupname' 0 10 'identifier' 0 11 'infile' 0 12 'ion' 0 13 'ion_in' 0
14 'lines_detected_str' 0 15 'linesfile' 0 16 'noise_added' 0 17
'out_type' 0 18 'plotfile' 0 19 'prefix' 0 20 'profile_str' 0 21 'psfile'
0 22 'regionsfile' 0 23 'simulation' 0 24 'spec_id' 0 25 'specfile' 0 26
'specfile_dir' 0 27 'specfile_prefix' 0 28 'spectrum_fitted_str' 0 29
'spectrum_shifted_str' 0 30 'spectrum_written_str' 0 31 'spectype' 0 32
'statmsg' 0 33 'str_inset' 0 34 'warnmsg' 0 35)
