GFORTRAN module version '10' created from pro_modules.f
MD5:54841c746fe982dd356a58f6ad9cc714 -- If you edit this, you'll get what you deserve.

(() () () () () () () () () () () () () () () () () () () () () () () ()
() () ())

()

()

()

()

()

(2 'check_fit_str' 'common_strings' '' 1 ((VARIABLE UNKNOWN-INTENT
UNKNOWN-PROC UNKNOWN IMPLICIT-SAVE 0 0) (CHARACTER 1 0 0 0 CHARACTER ((
CONSTANT (INTEGER 4 0 0 0 INTEGER ()) 0 '5'))) 0 0 () () 0 () () () 0 0)
3 'common_strings' 'common_strings' '' 1 ((MODULE UNKNOWN-INTENT
UNKNOWN-PROC UNKNOWN UNKNOWN 0 0) (UNKNOWN 0 0 0 0 UNKNOWN ()) 0 0 () ()
0 () () () 0 0)
4 'errmsg' 'common_strings' '' 1 ((VARIABLE UNKNOWN-INTENT UNKNOWN-PROC
UNKNOWN UNKNOWN 0 0) (CHARACTER 1 0 0 0 CHARACTER ((CONSTANT (INTEGER 4
0 0 0 INTEGER ()) 0 '256'))) 0 0 () () 0 () () () 0 0)
5 'infile' 'common_strings' '' 1 ((VARIABLE UNKNOWN-INTENT UNKNOWN-PROC
UNKNOWN IMPLICIT-SAVE 0 0) (CHARACTER 1 0 0 0 CHARACTER ((CONSTANT (
INTEGER 4 0 0 0 INTEGER ()) 0 '256'))) 0 0 () () 0 () () () 0 0)
6 'ion_name' 'common_strings' '' 1 ((VARIABLE UNKNOWN-INTENT
UNKNOWN-PROC UNKNOWN IMPLICIT-SAVE 0 0) (CHARACTER 1 0 0 0 CHARACTER ((
CONSTANT (INTEGER 4 0 0 0 INTEGER ()) 0 '256'))) 0 0 () () 0 () () () 0
0)
7 'ion_str' 'common_strings' '' 1 ((VARIABLE UNKNOWN-INTENT UNKNOWN-PROC
UNKNOWN IMPLICIT-SAVE 0 0) (CHARACTER 1 0 0 0 CHARACTER ((CONSTANT (
INTEGER 4 0 0 0 INTEGER ()) 0 '256'))) 0 0 () () 0 () () () 0 0)
8 'signaltonoise_str' 'common_strings' '' 1 ((VARIABLE UNKNOWN-INTENT
UNKNOWN-PROC UNKNOWN IMPLICIT-SAVE 0 0) (CHARACTER 1 0 0 0 CHARACTER ((
CONSTANT (INTEGER 4 0 0 0 INTEGER ()) 0 '256'))) 0 0 () () 0 () () () 0
0)
9 'spectrum_shifted_str' 'common_strings' '' 1 ((VARIABLE UNKNOWN-INTENT
UNKNOWN-PROC UNKNOWN IMPLICIT-SAVE 0 0) (CHARACTER 1 0 0 0 CHARACTER ((
CONSTANT (INTEGER 4 0 0 0 INTEGER ()) 0 '5'))) 0 0 () () 0 () () () 0 0)
10 'statmsg' 'common_strings' '' 1 ((VARIABLE UNKNOWN-INTENT
UNKNOWN-PROC UNKNOWN UNKNOWN 0 0) (CHARACTER 1 0 0 0 CHARACTER ((
CONSTANT (INTEGER 4 0 0 0 INTEGER ()) 0 '256'))) 0 0 () () 0 () () () 0
0)
11 'warnmsg' 'common_strings' '' 1 ((VARIABLE UNKNOWN-INTENT
UNKNOWN-PROC UNKNOWN UNKNOWN 0 0) (CHARACTER 1 0 0 0 CHARACTER ((
CONSTANT (INTEGER 4 0 0 0 INTEGER ()) 0 '256'))) 0 0 () () 0 () () () 0
0)
)

('check_fit_str' 0 2 'common_strings' 0 3 'errmsg' 0 4 'infile' 0 5
'ion_name' 0 6 'ion_str' 0 7 'signaltonoise_str' 0 8
'spectrum_shifted_str' 0 9 'statmsg' 0 10 'warnmsg' 0 11)
