GFORTRAN module version '10' created from pro_modules.f
MD5:df9ae73bb0b7cdbdef2a086efccd1007 -- If you edit this, you'll get what you deserve.

(() () () () () () () () () () () () () () () () () () () () () () () ()
() () ())

()

()

()

()

()

(2 'clight' 'physical' '' 1 ((PARAMETER UNKNOWN-INTENT UNKNOWN-PROC
UNKNOWN IMPLICIT-SAVE 0 0) (REAL 8 0 0 0 REAL ()) 0 0 () (CONSTANT (
REAL 8 0 0 0 REAL ()) 0 '0.6fae33cc000000@9') () 0 () () () 0 0)
3 'echarge' 'physical' '' 1 ((PARAMETER UNKNOWN-INTENT UNKNOWN-PROC
UNKNOWN IMPLICIT-SAVE 0 0) (REAL 8 0 0 0 REAL ()) 0 0 () (CONSTANT (
REAL 8 0 0 0 REAL ()) 0 '0.20fc3fd23616e0@-7') () 0 () () () 0 0)
4 'emass' 'physical' '' 1 ((PARAMETER UNKNOWN-INTENT UNKNOWN-PROC
UNKNOWN IMPLICIT-SAVE 0 0) (REAL 8 0 0 0 REAL ()) 0 0 () (CONSTANT (
REAL 8 0 0 0 REAL ()) 0 '0.482d467028f994@-22') () 0 () () () 0 0)
5 'eradius' 'physical' '' 1 ((PARAMETER UNKNOWN-INTENT UNKNOWN-PROC
UNKNOWN IMPLICIT-SAVE 0 0) (REAL 8 0 0 0 REAL ()) 0 0 () (CONSTANT (
REAL 8 0 0 0 REAL ()) 0 '0.4f51d47adf670c@-10') () 0 () () () 0 0)
6 'physical' 'physical' '' 1 ((MODULE UNKNOWN-INTENT UNKNOWN-PROC
UNKNOWN UNKNOWN 0 0) (UNKNOWN 0 0 0 0 UNKNOWN ()) 0 0 () () 0 () () () 0
0)
7 'pi' 'physical' '' 1 ((PARAMETER UNKNOWN-INTENT UNKNOWN-PROC UNKNOWN
IMPLICIT-SAVE 0 0) (REAL 8 0 0 0 REAL ()) 0 0 () (CONSTANT (REAL 8 0 0 0
REAL ()) 0 '0.3243f705857afe@1') () 0 () () () 0 0)
8 'sigma0' 'physical' '' 1 ((PARAMETER UNKNOWN-INTENT UNKNOWN-PROC
UNKNOWN IMPLICIT-SAVE 0 0) (REAL 8 0 0 0 REAL ()) 0 0 () (CONSTANT (
REAL 8 0 0 0 REAL ()) 0 '0.7436e8a9dfdd88@-14') () 0 () () () 0 0)
)

('clight' 0 2 'echarge' 0 3 'emass' 0 4 'eradius' 0 5 'physical' 0 6 'pi'
0 7 'sigma0' 0 8)
