3350.003979 0.853724 0.181215
3350.012490 1.026584 0.184048
3350.021001 0.929232 0.186028
3350.029511 1.041801 0.188123
3350.038022 1.254710 0.190217
3350.046533 1.353029 0.190281
3350.055044 1.259395 0.188875
3350.063555 1.129507 0.186739
3350.072066 0.990025 0.183553
3350.080577 1.102232 0.186176
3350.089088 1.172897 0.182833
3350.097599 1.259985 0.183761
3350.106110 1.076116 0.182586
3350.114621 0.900181 0.180765
3350.123132 1.124149 0.184811
3350.131643 1.358840 0.188924
3350.140154 1.365389 0.189059
3350.148665 1.001146 0.185230
3350.157176 0.942794 0.183359
3350.165687 0.903396 0.182304
3350.174198 0.952265 0.181079
3350.182710 1.176470 0.186441
3350.191221 1.238193 0.187942
3350.199732 1.200483 0.186839
3350.208243 0.891942 0.183680
3350.216755 0.802131 0.183005
3350.225266 1.012976 0.184253
3350.233777 1.078458 0.183911
3350.242289 0.964791 0.181061
3350.250800 0.940998 0.182045
3350.259311 1.032572 0.186102
3350.267823 1.143790 0.187384
3350.276334 0.876929 0.185000
3350.284846 0.632093 0.182077
3350.293357 0.840529 0.182335
3350.301869 1.087857 0.184742
3350.310380 0.989911 0.184834
3350.318892 1.231255 0.190717
3350.327403 1.422058 0.192195
3350.335915 1.263541 0.187264
3350.344427 1.427427 0.203310
3350.352938 1.158642 0.186047
3350.361450 1.174317 0.185999
3350.369962 0.967804 0.185671
3350.378473 0.965464 0.186908
3350.386985 0.925374 0.184661
3350.395497 0.845170 0.181444
3350.404008 0.928709 0.182835
3350.412520 1.191427 0.188231
3350.421032 1.252226 0.187819
3350.429544 1.193030 0.186796
3350.438056 1.105402 0.185295
3350.446568 1.144923 0.186452
3350.455080 1.258524 0.188011
3350.463591 0.953911 0.184560
3350.472103 0.808491 0.183876
3350.480615 0.881783 0.183886
3350.489127 0.874442 0.181586
3350.497639 0.850818 0.181729
3350.506151 0.984440 0.185066
3350.514663 0.869350 0.184637
3350.523175 0.854253 0.184474
3350.531688 0.984545 0.185324
3350.540200 1.070513 0.186618
3350.548712 0.929548 0.184349
3350.557224 0.944543 0.185217
3350.565736 0.990786 0.187293
3350.574248 0.906010 0.187824
3350.582761 0.925327 0.190830
3350.591273 0.893162 0.188733
3350.599785 0.948398 0.182771
3350.608297 0.996554 0.182129
3350.616810 0.969309 0.183303
3350.625322 0.794089 0.184105
3350.633834 0.866647 0.184132
3350.642347 1.108896 0.187823
3350.650859 1.177758 0.189297
3350.659371 1.168371 0.189552
3350.667884 1.209920 0.188376
3350.676396 1.095307 0.184521
3350.684909 0.989981 0.184150
3350.693421 0.649336 0.182004
3350.701934 0.732501 0.181625
3350.710446 1.104957 0.186469
3350.718959 1.238779 0.189454
3350.727472 1.183917 0.189564
3350.735984 1.118140 0.187516
3350.744497 0.947522 0.184413
3350.753009 0.676363 0.179402
3350.761522 0.609805 0.178959
3350.770035 0.907426 0.183824
3350.778547 0.999009 0.185369
3350.787060 1.493762 0.193578
3350.795573 1.664977 0.195672
3350.804086 1.168601 0.211022
3350.812599 0.924599 0.208803
3350.821111 0.866379 0.208469
3350.829624 0.998537 0.207623
3350.838137 0.990538 0.202951
3350.846650 1.145690 0.193786
3350.855163 1.158958 0.196007
3350.863676 1.157682 0.188010
3350.872189 1.193444 0.189076
3350.880702 0.992219 0.186629
3350.889215 0.920540 0.184671
3350.897728 1.025564 0.186047
3350.906241 1.158358 0.188146
3350.914754 1.275823 0.188863
3350.923267 1.192620 0.184919
3350.931780 1.010703 0.183795
3350.940293 0.888318 0.187043
3350.948806 1.066788 0.189693
3350.957319 1.225313 0.188025
3350.965833 1.084482 0.185121
3350.974346 0.944660 0.185383
3350.982859 0.930774 0.186438
3350.991372 1.080593 0.187229
3350.999886 1.061151 0.186320
3351.008399 1.134399 0.187885
3351.016912 1.373231 0.191445
3351.025426 1.240361 0.189215
3351.033939 0.740913 0.179560
3351.042452 0.939707 0.181889
3351.050966 1.263199 0.188791
3351.059479 1.215053 0.188497
3351.067993 0.743846 0.180771
3351.076506 0.530547 0.178905
3351.085020 0.865623 0.183111
3351.093533 1.129466 0.186800
3351.102047 1.092570 0.185738
3351.110560 0.918587 0.184415
3351.119074 1.043698 0.184692
3351.127587 1.172861 0.185938
3351.136101 1.140026 0.184985
3351.144615 0.928312 0.181160
3351.153128 0.868515 0.180506
3351.161642 0.651103 0.176662
3351.170156 0.654884 0.176858
3351.178669 0.824166 0.180875
3351.187183 0.835956 0.182027
3351.195697 0.680158 0.179274
3351.204211 0.480955 0.174475
3351.212725 0.355008 0.171546
3351.221238 -0.053075 0.167563
3351.229752 -0.096142 0.167428
3351.238266 0.136358 0.167112
3351.246780 0.213205 0.168468
3351.255294 0.141898 0.167805
3351.263808 0.103108 0.167036
3351.272322 0.275501 0.168001
3351.280836 0.407799 0.168944
3351.289350 0.368303 0.169798
3351.297864 0.485459 0.174395
3351.306378 0.579562 0.175549
3351.314892 0.566012 0.173501
3351.323406 0.679661 0.175562
3351.331920 0.716819 0.177009
3351.340434 0.765241 0.178315
3351.348949 0.735315 0.176954
3351.357463 0.693330 0.176353
3351.365977 0.658500 0.177289
3351.374491 0.588260 0.176874
3351.383006 0.595224 0.176708
3351.391520 0.577836 0.176971
3351.400034 0.720338 0.180435
3351.408548 0.790484 0.179651
3351.417063 0.647591 0.177153
3351.425577 0.630001 0.179000
3351.434091 0.713906 0.180787
3351.442606 0.906579 0.182989
3351.451120 0.950137 0.183215
