   1270.9500000000000        1.0992553829991425       6.84375125544627455E-002   12354.897105708484       1.55000000000000002E-014  1.41004540343579925E-014  9.64999999999999903E-016
   1270.9600000000000        1.0140889470775765       6.57384932825813562E-002   12357.363153034972       1.42999999999999997E-014  1.41013271480870096E-014  9.27000000000000075E-016
   1270.9700000000000       0.92904062617124483       6.29761890106920047E-002   12359.829200361461       1.31000000000000007E-014  1.41005674358801960E-014  8.88000000000000033E-016
   1270.9800000000000       0.94346587157577566       6.34179315179506237E-002   12362.295247687949       1.33000000000000008E-014  1.40969593079041160E-014  8.93999999999999933E-016
   1270.9900000000000       0.96488494853540085       6.41364701085295891E-002   12364.761295014438       1.36000000000000001E-014  1.40949447088416550E-014  9.04000000000000095E-016
   1271.0000000000000       0.99314963059548556       6.46256652480348137E-002   12367.227342340928       1.40000000000000003E-014  1.40965666891560932E-014  9.11000000000000012E-016
   1271.0100000000000       0.99360972269236636       6.52943532054983539E-002   12369.693389667416       1.40000000000000003E-014  1.40900392581349267E-014  9.19999999999999961E-016
   1271.0200000000000        1.0075818129412220       6.57056872382796864E-002   12372.159436993905       1.42000000000000004E-014  1.40931483851906000E-014  9.26000000000000059E-016
   1271.0300000000000       0.95127932104298329       6.34659487322706689E-002   12374.625484320393       1.34000000000000000E-014  1.40862937978176917E-014  8.93999999999999933E-016
   1271.0400000000000       0.88041262238720619       6.39009161410069026E-002   12377.091531646882       1.23999999999999995E-014  1.40843051140928214E-014  9.00000000000000030E-016
   1271.0500000000000       0.90168722163956905       6.51770763358365535E-002   12379.557578973370       1.27000000000000005E-014  1.40847066424066110E-014  9.17999999999999929E-016
   1271.0599999999999        1.0081389598177981       6.90788174579378550E-002   12382.023626299859       1.42000000000000004E-014  1.40853598223863695E-014  9.73000000000000033E-016
   1271.0699999999999       0.91600236016461134       6.56113318443489052E-002   12384.489673626349       1.29000000000000006E-014  1.40829331462440665E-014  9.24000000000000026E-016
   1271.0799999999999       0.85927864379890351       6.37002432634393712E-002   12386.955720952838       1.21000000000000002E-014  1.40815788770281099E-014  8.96999999999999982E-016
   1271.0899999999999       0.99432150573171030       6.83951150014026482E-002   12389.421768279326       1.40000000000000003E-014  1.40799529320222771E-014  9.63000000000000068E-016
   1271.0999999999999       0.99439823435071673       6.83293643889563845E-002   12391.887815605814       1.40000000000000003E-014  1.40788665108010510E-014  9.62000000000000052E-016
   1271.1099999999999       0.95894872734670455       6.68422779580184478E-002   12394.353862932303       1.34999999999999993E-014  1.40779163838643074E-014  9.40999999999999908E-016
   1271.1199999999999       0.88789975346354943       6.49232299732547397E-002   12396.819910258791       1.25000000000000004E-014  1.40781658641525422E-014  9.14000000000000061E-016
   1271.1300000000001       0.92346876892240537       6.61345710666737946E-002   12399.285957585280       1.29999999999999998E-014  1.40773574997773717E-014  9.30999999999999943E-016
   1271.1400000000001        1.0016071623925056       6.86917819881952274E-002   12401.752004911768       1.40999999999999996E-014  1.40773753717173920E-014  9.66999999999999936E-016
   1271.1500000000001       0.95900189626979326       6.74853186263928706E-002   12404.218052238259       1.34999999999999993E-014  1.40771358769055887E-014  9.50000000000000054E-016
   1271.1600000000001       0.96598340737959021       6.72636975579758711E-002   12406.684099564747       1.36000000000000001E-014  1.40789167765236582E-014  9.47000000000000005E-016
   1271.1700000000001        1.0370074861522380       6.97494076302395682E-002   12409.150146891236       1.45999999999999990E-014  1.40789726158800797E-014  9.81999999999999982E-016
   1271.1800000000001       0.94477427688107329       6.67735203209179617E-002   12411.616194217724       1.33000000000000008E-014  1.40774366168250203E-014  9.40000000000000089E-016
   1271.1900000000001       0.90208792291374762       6.27910018784057361E-002   12414.082241544213       1.27000000000000005E-014  1.40784503122256083E-014  8.83999999999999968E-016
   1271.2000000000000        1.0154902329385294       6.61843983985111461E-002   12416.548288870701       1.42999999999999997E-014  1.40818685755548978E-014  9.31999999999999959E-016
   1271.2100000000000       0.97983919855038870       6.49675990343192566E-002   12419.014336197190       1.38000000000000002E-014  1.40839435903526255E-014  9.15000000000000077E-016
   1271.2200000000000       0.80219096131268253       5.85670392108816884E-002   12421.480383523680       1.12999999999999998E-014  1.40864214943397025E-014  8.24999999999999995E-016
   1271.2300000000000       0.82335103601620252       5.95509930359994707E-002   12423.946430850168       1.16000000000000007E-014  1.40887659000549642E-014  8.39000000000000025E-016
   1271.2400000000000       0.88014643608754051       6.12553527696409264E-002   12426.412478176657       1.23999999999999995E-014  1.40885646883045260E-014  8.63000000000000021E-016
   1271.2500000000000       0.89420157755961116       6.18844266374588003E-002   12428.878525503145       1.25999999999999996E-014  1.40907825664846048E-014  8.71999999999999970E-016
   1271.2600000000000       0.96538777062955894       6.42408773838051977E-002   12431.344572829634       1.36000000000000001E-014  1.40876033587322364E-014  9.04999999999999915E-016
   1271.2700000000000       0.86607601068744444       6.11932394436538671E-002   12433.810620156122       1.21999999999999994E-014  1.40865234107065237E-014  8.62000000000000005E-016
   1271.2800000000000       0.92288691024028402       6.31822577010656000E-002   12436.276667482611       1.29999999999999998E-014  1.40862329455028282E-014  8.90000000000000065E-016
   1271.2900000000000       0.90151411453680419       6.22541636573840304E-002   12438.742714809099       1.27000000000000005E-014  1.40874111621926520E-014  8.76999999999999953E-016
   1271.3000000000000       0.83032520655536834       5.94001878535763486E-002   12441.208762135589       1.17000000000000000E-014  1.40908645282946882E-014  8.36999999999999993E-016
   1271.3099999999999       0.80202310005594157       5.84838083580615786E-002   12443.674809462078       1.12999999999999998E-014  1.40893697441031540E-014  8.23999999999999979E-016
   1271.3199999999999       0.88722798657104107       6.10412854760876283E-002   12446.140856788566       1.25000000000000004E-014  1.40888251827019148E-014  8.59999999999999972E-016
   1271.3299999999999       0.87279926812699127       6.13797859292558867E-002   12448.606904115055       1.23000000000000003E-014  1.40925874358207689E-014  8.64999999999999955E-016
   1271.3399999999999       0.80184545566709398       5.89675728902084167E-002   12451.072951441543       1.12999999999999998E-014  1.40924911653941892E-014  8.30999999999999994E-016
   1271.3499999999999       0.75918097542775054       5.70450003966272434E-002   12453.538998768032       1.06999999999999995E-014  1.40941361102617533E-014  8.04000000000000048E-016
   1271.3599999999999       0.83002033174579748       5.95912033048264927E-002   12456.005046094520       1.17000000000000000E-014  1.40960402444493957E-014  8.40000000000000042E-016
   1271.3699999999999       0.81586865242995454       5.78912017724211303E-002   12458.471093421011       1.14999999999999999E-014  1.40954061241951180E-014  8.16000000000000046E-016
   1271.3800000000001       0.73784150608170407       5.59766296440831201E-002   12460.937140747499       1.04000000000000002E-014  1.40951680195236513E-014  7.89000000000000002E-016
   1271.3900000000001       0.71663177271969691       5.50600253099489956E-002   12463.403188073988       1.00999999999999992E-014  1.40937094676522372E-014  7.75999999999999988E-016
   1271.4000000000001       0.65072536066399445       5.30089252362054286E-002   12465.869235400476       9.17000000000000031E-015  1.40919665258520328E-014  7.47000000000000010E-016
   1271.4100000000001       0.64221054647019449       5.18735811568742794E-002   12468.335282726965       9.04999999999999993E-015  1.40919516967478170E-014  7.31000000000000045E-016
   1271.4200000000001       0.59037541137464233       5.04515525826166739E-002   12470.801330053453       8.31999999999999951E-015  1.40927278468924364E-014  7.11000000000000016E-016
   1271.4300000000001       0.46546632065231308       4.45598855746421746E-002   12473.267377379942       6.56000000000000010E-015  1.40933934614360386E-014  6.28000000000000048E-016
   1271.4400000000001       0.52221624674347877       4.73258473611277639E-002   12475.733424706430       7.35999999999999969E-015  1.40937782880113143E-014  6.66999999999999991E-016
   1271.4500000000000       0.45197723319165145       4.41334127229524656E-002   12478.199472032920       6.36999999999999977E-015  1.40936302366781724E-014  6.22000000000000049E-016
   1271.4600000000000       0.43916831220546626       4.33492469721389120E-002   12480.665519359409       6.19000000000000000E-015  1.40948238476367785E-014  6.10999999999999969E-016
   1271.4700000000000       0.33775471109660099       3.78200128181698167E-002   12483.131566685897       4.76000000000000004E-015  1.40930676719372117E-014  5.32999999999999983E-016
   1271.4800000000000       0.30367548533395006       3.56180125321595570E-002   12485.597614012386       4.28000000000000013E-015  1.40939924580784347E-014  5.01999999999999973E-016
   1271.4900000000000       0.33556599196457820       3.52592596208024037E-002   12488.063661338874       4.72999999999999995E-015  1.40955880907600772E-014  4.96999999999999990E-016
   1271.5000000000000       0.19224067600608719       2.68143821145021971E-002   12490.529708665363       2.70999999999999986E-015  1.40969125593076326E-014  3.77999999999999979E-016
   1271.5100000000000       0.17026144279717220       2.64614659013938450E-002   12492.995755991851       2.39999999999999995E-015  1.40959688850931112E-014  3.72999999999999997E-016
   1271.5200000000000       0.13835060622206119       2.44774149469800528E-002   12495.461803318340       1.95000000000000013E-015  1.40946256272280501E-014  3.44999999999999985E-016
   1271.5300000000000       0.10287821321969993       2.02918406764373664E-002   12497.927850644830       1.45000000000000009E-015  1.40943349871704667E-014  2.86000000000000013E-016
   1271.5400000000000       0.12345890238472362       2.07183905151375296E-002   12500.393897971318       1.74000000000000007E-015  1.40937588654222606E-014  2.92000000000000012E-016
   1271.5500000000000       8.93982213890367611E-002  1.95824675423604336E-002   12502.859945297807       1.25999999999999996E-015  1.40942401361300283E-014  2.75999999999999998E-016
   1271.5599999999999       7.80442840888794648E-002  1.68859451028666521E-002   12505.325992624295       1.09999999999999993E-015  1.40945619892839656E-014  2.38000000000000022E-016
   1271.5699999999999       6.60633923548021168E-002  1.62497495695485376E-002   12507.792039950784       9.30999999999999943E-016  1.40925248736840857E-014  2.29000000000000023E-016
   1271.5799999999999       7.52171361647158282E-002  1.76689310424662654E-002   12510.258087277272       1.06000000000000007E-015  1.40925333514258878E-014  2.49000000000000003E-016
   1271.5899999999999       4.04508183356176998E-002  1.20642791527280861E-002   12512.724134603761       5.69999999999999993E-016  1.40911858759135262E-014  1.70000000000000001E-016
   1271.5999999999999       4.81161662921789357E-002  1.27742034404014874E-002   12515.190181930251       6.77999999999999973E-016  1.40908981792717305E-014  1.79999999999999991E-016
   1271.6099999999999       6.25261720621833189E-002  1.56847718793899117E-002   12517.656229256740       8.81000000000000018E-016  1.40900997285397672E-014  2.20999999999999992E-016
   1271.6199999999999       2.56908953977673903E-002  1.05744293211805004E-002   12520.122276583228       3.62000000000000015E-016  1.40905949129145113E-014  1.49000000000000005E-016
   1271.6300000000001       2.38395214173594931E-002  1.05007415766940615E-002   12522.588323909717       3.35999999999999987E-016  1.40942426702966901E-014  1.47999999999999989E-016
   1271.6400000000001       4.03683386060830415E-002  1.18480009617150592E-002   12525.054371236205       5.68999999999999977E-016  1.40952047978080094E-014  1.67000000000000002E-016
   1271.6500000000001       2.03586071691708552E-002  9.93102788740041729E-003   12527.520418562694       2.86999999999999980E-016  1.40972315844182895E-014  1.40000000000000007E-016
   1271.6600000000001       1.68822184200333458E-002  9.57604826346429225E-003   12529.986465889182       2.38000000000000022E-016  1.40976733080041460E-014  1.35000000000000000E-016
   1271.6700000000001       1.58888234028497326E-002  9.64678563744448062E-003   12532.452513215670       2.23999999999999991E-016  1.40979602026305221E-014  1.35999999999999991E-016
   1271.6800000000001       7.80216846357968674E-003  1.05683918279397583E-002   12534.918560542161       1.10000000000000000E-016  1.40986445644537215E-014  1.49000000000000005E-016
   1271.6900000000001       4.18427856663776132E-002  1.13471961129159634E-002   12537.384607868649       5.90000000000000022E-016  1.41003996412717118E-014  1.60000000000000011E-016
   1271.7000000000000       1.82250366408509314E-002  9.64437736636469464E-003   12539.850655195138       2.56999999999999985E-016  1.41014805656928759E-014  1.35999999999999991E-016
   1271.7100000000000       1.75163847056176818E-002  7.94265217420720695E-004   12542.316702521626       2.47000000000000020E-016  1.41010833086341522E-014  1.12000000000000005E-017
   1271.7200000000000       4.78641561283949316E-003  8.29645372892178780E-004   12544.782749848115       6.74999999999999998E-017  1.41024109604966583E-014  1.16999999999999994E-017
   1271.7300000000000       1.83613217456932744E-002  8.86164176915698611E-004   12547.248797174603       2.59000000000000018E-016  1.41057383333936479E-014  1.24999999999999997E-017
   1271.7400000000000       6.18018303815240193E-003  9.35532294766189309E-004   12549.714844501092       8.72000000000000044E-017  1.41096144663813871E-014  1.32000000000000006E-017
   1271.7500000000000       6.26463242273910242E-003  9.07096097410186718E-004   12552.180891827582       8.84000000000000042E-017  1.41109635864874305E-014  1.27999999999999997E-017
   1271.7600000000000       5.32872887187441774E-003  6.55461995543063416E-003   12554.646939154070       7.51999999999999943E-017  1.41121835634973602E-014  9.24999999999999993E-017
   1271.7700000000000       1.60129962303716018E-002  1.10532186368936716E-002   12557.112986480559       2.26000000000000024E-016  1.41135360771114975E-014  1.55999999999999996E-016
   1271.7800000000000       5.92226427505735623E-003  1.20428818990400764E-003   12559.579033807047       8.36000000000000051E-017  1.41162224644543323E-014  1.69999999999999989E-017
   1271.7900000000000       6.07719006838149372E-003  7.79126931843781255E-003   12562.045081133536       8.57999999999999964E-017  1.41183670470340688E-014  1.10000000000000000E-016
   1271.8000000000000       2.64132385299501483E-002  1.17549533404067690E-002   12564.511128460024       3.72999999999999997E-016  1.41217064154042600E-014  1.66000000000000010E-016
   1271.8099999999999       6.98137455740130506E-003  8.99223700598342571E-003   12566.977175786513       9.86000000000000023E-017  1.41232932267570711E-014  1.26999999999999993E-016
   1271.8199999999999       1.07647713828103852E-002  9.70245841740146470E-003   12569.443223113001       1.52000000000000005E-016  1.41201326618714499E-014  1.37000000000000007E-016
   1271.8299999999999       9.98549892060556638E-003  9.70222235548200487E-003   12571.909270439492       1.40999999999999999E-016  1.41204762146676096E-014  1.37000000000000007E-016
   1271.8399999999999       9.34782557149914720E-003  1.20388662663246568E-003   12574.375317765980       1.32000000000000000E-016  1.41209310112138363E-014  1.69999999999999989E-017
   1271.8499999999999       3.15866186229600077E-003  6.32440592607696919E-004   12576.841365092469       4.46000000000000000E-017  1.41199032832152195E-014  8.92999999999999948E-018
   1271.8599999999999       1.50153491306095422E-003  6.31777897382250573E-004   12579.307412418957       2.12000000000000012E-017  1.41188858251605601E-014  8.92000000000000030E-018
   1271.8599999999999       5.28613233330468271E-004  1.75287362130400678E-003   12581.773459745446       7.46473591912783138E-018  1.41213565012307786E-014  2.47529533080372726E-017
   1271.8800000000001       6.50704531967768660E-003  6.32295045753228846E-004   12584.239507071934       9.18999999999999994E-017  1.41231535182472166E-014  8.92999999999999948E-018
   1271.8900000000001       1.18954299664336145E-002  7.05937123603232915E-004   12586.705554398422       1.67999999999999994E-016  1.41230708325853244E-014  9.97000000000000010E-018
   1271.9000000000001       4.87121147268935670E-003  6.80411951345126715E-004   12589.171601724913       6.88000000000000037E-017  1.41237965926402436E-014  9.61000000000000048E-018
   1271.9100000000001       7.71663668954231888E-003  7.06532423501214191E-004   12591.637649051401       1.08999999999999996E-016  1.41253248513977776E-014  9.97999999999999928E-018
   1271.9200000000001       3.96419494921829933E-003  7.06476171307118274E-004   12594.103696377890       5.59999999999999978E-017  1.41264495609739520E-014  9.97999999999999928E-018
   1271.9300000000001       1.40877813168646341E-002  8.56593738362121035E-003   12596.569743704378       1.99000000000000004E-016  1.41257161453645620E-014  1.20999999999999994E-016
   1271.9400000000001       2.06715963539638795E-002  1.13976952499595368E-002   12599.035791030867       2.92000000000000012E-016  1.41256628177149748E-014  1.61000000000000003E-016
   1271.9400000000001       1.18913768880729645E-002  7.78602058147634564E-003   12601.501838357355       1.67999999999999994E-016  1.41278845655378882E-014  1.10000000000000000E-016
   1271.9500000000000       1.74106265007112262E-003  7.06333546654870094E-004   12603.967885683844       2.45999999999999985E-017  1.41293020093188974E-014  9.97999999999999928E-018
   1271.9600000000000       5.20221931191156787E-003  7.06369370515339424E-004   12606.433933010332       7.34999999999999987E-017  1.41285854350097065E-014  9.97999999999999928E-018
   1271.9700000000000       1.69125826141029202E-002  7.06931800480703693E-004   12608.899980336822       2.38999999999999989E-016  1.41314904679729228E-014  9.99000000000000000E-018
   1271.9800000000000       1.59204332023918475E-002  6.76441517399404679E-003   12611.366027663311       2.25000000000000008E-016  1.41327812591303454E-014  9.56000000000000028E-017
   1271.9900000000000       5.50432417871940614E-003  2.58236288590306309E-003   12613.832074989799       7.78000000000000020E-017  1.41343419235348081E-014  3.65000000000000015E-017
   1272.0100000000000       1.50689982504688593E-002  1.03289847162838198E-002   12616.298122316288       2.13000000000000010E-016  1.41349807372479245E-014  1.46000000000000006E-016
   1272.0200000000000       6.49432567080523472E-003  9.69196750436075553E-003   12618.764169642776       9.17999999999999953E-017  1.41354167704708997E-014  1.37000000000000007E-016
   1272.0300000000000       1.64803233697296790E-002  2.61704705871243851E-003   12621.230216969265       2.32999999999999990E-016  1.41380720980247241E-014  3.69999999999999973E-017
   1272.0400000000000       1.11733903094547015E-002  8.20324858162497020E-003   12623.696264295753       1.58000000000000004E-016  1.41407393480476146E-014  1.16000000000000011E-016
   1272.0500000000000       1.99409856486932255E-002  1.03947691147443406E-002   12626.162311622244       2.81999999999999997E-016  1.41417282459395403E-014  1.46999999999999997E-016
   1272.0599999999999       1.99384696505040364E-002  1.11004955146423185E-002   12628.628358948732       2.81999999999999997E-016  1.41435127641740134E-014  1.57000000000000012E-016
   1272.0599999999999       1.97932925085728857E-002  1.10983818708783686E-002   12631.094406275221       2.80000000000000014E-016  1.41462063413010350E-014  1.57000000000000012E-016
   1272.0699999999999       1.61112761512540031E-002  9.75156188102215861E-003   12633.560453601709       2.28000000000000007E-016  1.41515791709804370E-014  1.37999999999999999E-016
   1272.0799999999999       3.04679231140513491E-002  1.18054365662333544E-002   12636.026500928197       4.31000000000000002E-016  1.41460249320778038E-014  1.67000000000000002E-016
   1272.0899999999999       3.11098482296037447E-002  1.18076014871450578E-002   12638.492548254686       4.40000000000000001E-016  1.41434312617861461E-014  1.67000000000000002E-016
   1272.0999999999999       4.14269408041693238E-002  1.43509709611712860E-002   12640.958595581174       5.85999999999999957E-016  1.41453843471112224E-014  2.02999999999999995E-016
   1272.1099999999999       2.23429588941070692E-002  1.12421850131741267E-002   12643.424642907663       3.16000000000000007E-016  1.41431580972627864E-014  1.58999999999999995E-016
   1272.1199999999999       1.26591443122977231E-002  1.17397651164325260E-002   12645.890690234153       1.79000000000000000E-016  1.41399762562237699E-014  1.66000000000000010E-016
   1272.1400000000001       3.96708069131702437E-002  1.41428901651230801E-002   12648.356737560642       5.61000000000000044E-016  1.41413811225945754E-014  1.99999999999999996E-016
   1272.1500000000001       2.98336226979273728E-002  1.30080250626034045E-002   12650.822784887130       4.22000000000000004E-016  1.41451141979253345E-014  1.84000000000000007E-016
   1272.1600000000001       4.34112998786954224E-002  1.15952006190652279E-002   12653.288832213619       6.14000000000000018E-016  1.41437828794739062E-014  1.64000000000000002E-016
   1272.1700000000001       5.74921780768406568E-002  1.57696872215688406E-002   12655.754879540107       8.12999999999999997E-016  1.41410540911042220E-014  2.23000000000000024E-016
   1272.1800000000001       6.43474300569933794E-002  1.69000393226608966E-002   12658.220926866596       9.09999999999999996E-016  1.41419789289797714E-014  2.38999999999999989E-016
   1272.1900000000001       6.22104508295372102E-002  1.64009370368779911E-002   12660.686974193084       8.80000000000000001E-016  1.41455332386400333E-014  2.32000000000000023E-016
   1272.1900000000001       7.13811707789647754E-002  1.66084902307492288E-002   12663.153021519573       1.01000000000000004E-015  1.41493896636623351E-014  2.35000000000000022E-016
   1272.2000000000000       0.11939279012459379       2.16178661409027820E-002   12665.619068846063       1.69000000000000005E-015  1.41549585886750783E-014  3.05999999999999993E-016
   1272.2100000000000       0.12149854103610934       2.31694892208394558E-002   12668.085116172551       1.71999999999999994E-015  1.41565485917136768E-014  3.28000000000000005E-016
   1272.2200000000000       0.14408688214924212       2.41557420073729434E-002   12670.551163499040       2.04000000000000002E-015  1.41581243869723785E-014  3.41999999999999986E-016
   1272.2300000000000       0.14200123593491967       2.36668726558199490E-002   12673.017210825528       2.00999999999999992E-015  1.41548063773275830E-014  3.35000000000000020E-016
   1272.2400000000000       0.14763990133640081       2.18987413465474914E-002   12675.483258152017       2.09000000000000004E-015  1.41560647296687651E-014  3.10000000000000008E-016
   1272.2500000000000       0.21468325177671010       3.02251420264578671E-002   12677.949305478505       3.04000000000000009E-015  1.41603966534002091E-014  4.28000000000000003E-016
   1272.2600000000000       0.26198520282686238       3.38956596649309869E-002   12680.415352804994       3.70999999999999994E-015  1.41611051310093250E-014  4.80000000000000010E-016
   1272.2700000000000       0.24223074597897828       3.23445136030239208E-002   12682.881400131484       3.43000000000000012E-015  1.41600521690077643E-014  4.58000000000000047E-016
   1272.2800000000000       0.23304050134183388       3.17076318492373957E-002   12685.347447457973       3.29999999999999998E-015  1.41606286503796063E-014  4.48999999999999999E-016
   1272.2900000000000       0.28876662139065906       3.54427491291224583E-002   12687.813494784461       4.08999999999999980E-015  1.41636868565457471E-014  5.01999999999999973E-016
   1272.3000000000000       0.33602085032452528       3.72729010444011188E-002   12690.279542110949       4.76000000000000004E-015  1.41657876152710288E-014  5.28000000000000001E-016
   1272.3099999999999       0.34373532708101329       3.81143894504614306E-002   12692.745589437438       4.86999999999999985E-015  1.41678774810719814E-014  5.39999999999999999E-016
   1272.3199999999999       0.40151863690432721       4.17043083322420696E-002   12695.211636763926       5.68999999999999977E-015  1.41711977403325317E-014  5.91000000000000038E-016
   1272.3299999999999       0.37542033263644931       4.07175811900810647E-002   12697.677684090415       5.31999999999999967E-015  1.41707828199912584E-014  5.77000000000000008E-016
   1272.3399999999999       0.39100435260919453       4.16412577688492422E-002   12700.143731416903       5.54000000000000009E-015  1.41686402287628292E-014  5.90000000000000022E-016
   1272.3499999999999       0.39878673005992626       4.21372881142966366E-002   12702.609778743394       5.64999999999999991E-015  1.41679739422396690E-014  5.97000000000000037E-016
   1272.3599999999999       0.44395063550859437       4.43244831636561629E-002   12705.075826069882       6.29000000000000005E-015  1.41682419100360388E-014  6.28000000000000048E-016
   1272.3699999999999       0.43406672083487885       4.39713117203462608E-002   12707.541873396371       6.15000000000000014E-015  1.41683287494861666E-014  6.22999999999999967E-016
   1272.3800000000001       0.41918486171559333       4.24830449078766256E-002   12710.007920722859       5.94000000000000028E-015  1.41703590527802625E-014  6.02000000000000020E-016
   1272.3900000000001       0.42185301004790554       4.29612848025375388E-002   12712.473968049348       5.98000000000000014E-015  1.41755537060667473E-014  6.09000000000000035E-016
   1272.4000000000001       0.51696754163307290       4.78882620421359484E-002   12714.940015375836       7.33000000000000038E-015  1.41788398877904810E-014  6.78999999999999989E-016
   1272.4100000000001       0.51400921732004412       4.79459900929533611E-002   12717.406062702325       7.28999999999999973E-015  1.41826250470931422E-014  6.80000000000000006E-016
   1272.4200000000001       0.50271984415438331       4.72401536582660320E-002   12719.872110028815       7.13000000000000029E-015  1.41828497182028997E-014  6.70000000000000040E-016
   1272.4300000000001       0.49148337520807284       4.67508576417435123E-002   12722.338157355303       6.97000000000000006E-015  1.41815580171947897E-014  6.63000000000000025E-016
   1272.4400000000001       0.49140611215413899       4.64614961132822912E-002   12724.804204681792       6.97000000000000006E-015  1.41837877625212062E-014  6.58999999999999960E-016
   1272.4500000000000       0.48066130137084634       4.55993932532166510E-002   12727.270252008280       6.82000000000000038E-015  1.41887852850840208E-014  6.46999999999999962E-016
   1272.4600000000000       0.44601173474450151       4.39670335672304805E-002   12729.736299334769       6.32999999999999991E-015  1.41924516932859396E-014  6.23999999999999983E-016
   1272.4700000000000       0.50011799797405831       4.45879848897998490E-002   12732.202346661257       7.10000000000000020E-015  1.41966496482061927E-014  6.33000000000000031E-016
   1272.4800000000000       0.45634958844128293       4.45081697368658671E-002   12734.668393987746       6.48000000000000038E-015  1.41996402848378193E-014  6.32000000000000014E-016
   1272.4900000000000       0.43865520000194674       4.41471605780450402E-002   12737.134441314234       6.22999999999999986E-015  1.42024989102428320E-014  6.27000000000000032E-016
   1272.5000000000000       0.48149028753938816       4.56852626627284944E-002   12739.600488640725       6.83999999999999992E-015  1.42058940273856639E-014  6.48999999999999995E-016
   1272.5100000000000       0.45183768218944020       4.40576929985342022E-002   12742.066535967213       6.42000000000000019E-015  1.42086422913888623E-014  6.26000000000000016E-016
   1272.5200000000000       0.48340047094297978       4.65809478550586048E-002   12744.532583293701       6.87000000000000001E-015  1.42118190050550468E-014  6.62000000000000009E-016
   1272.5300000000000       0.47203651791509416       4.57966875056224007E-002   12746.998630620190       6.70999999999999978E-015  1.42150019020497404E-014  6.51000000000000027E-016
   1272.5400000000000       0.51271826160732847       4.76849082811754074E-002   12749.464677946678       7.28999999999999973E-015  1.42183349919046478E-014  6.77999999999999973E-016
   1272.5500000000000       0.56671887187630643       4.99218857360021820E-002   12751.930725273167       8.05999999999999923E-015  1.42222191636476798E-014  7.10000000000000000E-016
   1272.5599999999999       0.56332047924786843       4.99322771867648715E-002   12754.396772599655       8.01000000000000039E-015  1.42192593649262557E-014  7.10000000000000000E-016
   1272.5699999999999       0.58849350537685552       5.11855760949045183E-002   12756.862819926146       8.36999999999999993E-015  1.42227567909013294E-014  7.27999999999999997E-016
   1272.5799999999999       0.54904143330029309       4.92098595787714699E-002   12759.328867252634       7.81000000000000030E-015  1.42247916574419862E-014  7.00000000000000035E-016
   1272.5899999999999       0.52506424249290518       4.84296202245798682E-002   12761.794914579123       7.47000000000000029E-015  1.42268305389334088E-014  6.88999999999999955E-016
   1272.5999999999999       0.69512466238329751       5.58067726928552291E-002   12764.260961905611       9.88999999999999938E-015  1.42276638065052159E-014  7.93999999999999984E-016
   1272.6099999999999       0.73791480552271072       5.74870772302454661E-002   12766.727009232100       1.04999999999999994E-014  1.42292849003919904E-014  8.17999999999999980E-016
   1272.6199999999999       0.77285764595424267       5.88074408785182814E-002   12769.193056558588       1.10000000000000005E-014  1.42328927682644156E-014  8.36999999999999993E-016
   1272.6300000000001       0.71641424314339075       5.64702991654202138E-002   12771.659103885077       1.02000000000000001E-014  1.42375728813622486E-014  8.04000000000000048E-016
   1272.6400000000001       0.70932412761605901       5.59031688695428783E-002   12774.125151211565       1.00999999999999992E-014  1.42389065968257869E-014  7.96000000000000017E-016
   1272.6500000000001       0.77240864669854381       5.88434950848526969E-002   12776.591198538055       1.10000000000000005E-014  1.42411663139927131E-014  8.38000000000000009E-016
   1272.6600000000001       0.78644604085887981       5.91941082539317528E-002   12779.057245864544       1.12000000000000006E-014  1.42412821962565305E-014  8.42999999999999992E-016
   1272.6700000000001       0.79328885376504232       5.95317653090934387E-002   12781.523293191032       1.12999999999999998E-014  1.42444961206360958E-014  8.47999999999999974E-016
   1272.6800000000001       0.85632458320451754       6.19782464729171298E-002   12783.989340517521       1.21999999999999994E-014  1.42469342107935852E-014  8.82999999999999951E-016
   1272.6900000000001       0.89135864417092558       6.31671480121128448E-002   12786.455387844009       1.27000000000000005E-014  1.42479125356018507E-014  9.00000000000000030E-016
   1272.7000000000000       0.88422091773865297       6.29481081913945834E-002   12788.921435170498       1.25999999999999996E-014  1.42498325330549926E-014  8.96999999999999982E-016
   1272.7100000000000       0.91914172611296352       6.41995938468215011E-002   12791.387482496986       1.31000000000000007E-014  1.42524266147721345E-014  9.15000000000000077E-016
   1272.7200000000000       0.94003695438933554       6.49607626689943790E-002   12793.853529823475       1.34000000000000000E-014  1.42547587490375573E-014  9.26000000000000059E-016
   1272.7300000000000       0.90493115758480014       6.40466780523195750E-002   12796.319577149965       1.29000000000000006E-014  1.42552280268802159E-014  9.13000000000000045E-016
   1272.7400000000000       0.87679209251621459       6.31991740285687553E-002   12798.785624476453       1.25000000000000004E-014  1.42565154347224417E-014  9.01000000000000047E-016
   1272.7500000000000       0.88380855003525571       6.39007610382633373E-002   12801.251671802942       1.25999999999999996E-014  1.42564812249184245E-014  9.11000000000000012E-016
   1272.7600000000000       0.91890714243487392       7.08470392258948589E-002   12803.717719129430       1.31000000000000007E-014  1.42560650527628724E-014  1.01000000000000004E-015
   1272.7700000000000       0.92578259363202653       7.15377458715656805E-002   12806.183766455919       1.31999999999999999E-014  1.42582071544614091E-014  1.02000000000000001E-015
   1272.7800000000000       0.96084932884697261       7.29403870073614125E-002   12808.649813782407       1.36999999999999994E-014  1.42582188369118362E-014  1.03999999999999994E-015
   1272.7900000000000       0.91187360604528933       7.15470060127842422E-002   12811.115861108896       1.29999999999999998E-014  1.42563617521289881E-014  1.02000000000000001E-015
   1272.8000000000000       0.86966316823000800       7.01341264701619421E-002   12813.581908435386       1.23999999999999995E-014  1.42583938851144434E-014  1.00000000000000008E-015
   1272.8099999999999       0.89079299520700972       7.15440043394606207E-002   12816.047955761875       1.27000000000000005E-014  1.42569598866779052E-014  1.02000000000000001E-015
   1272.8199999999999       0.91891561154114854       7.22506167852964010E-002   12818.514003088363       1.31000000000000007E-014  1.42559336629720436E-014  1.02999999999999997E-015
   1272.8299999999999        1.0172982330964824       7.43680087642945714E-002   12820.980050414852       1.45000000000000013E-014  1.42534406610188184E-014  1.06000000000000007E-015
   1272.8399999999999        1.0664649090746372       7.64767599270627790E-002   12823.446097741340       1.52000000000000009E-014  1.42526958652478465E-014  1.08999999999999996E-015
   1272.8499999999999        1.0734354740424088       7.71750994409574897E-002   12825.912145067829       1.52999999999999985E-014  1.42533020102105686E-014  1.09999999999999993E-015
   1272.8599999999999        1.0176741134896898       7.57991753495769055E-002   12828.378192394317       1.45000000000000013E-014  1.42481761182647011E-014  1.08000000000000000E-015
