4962.007821 1.003630 0.015911
4962.032720 0.996790 0.015860
4962.057616 0.997763 0.015872
4962.082509 1.002272 0.015911
4962.107401 0.994648 0.015854
4962.132291 1.001425 0.015912
4962.157178 1.002134 0.015921
4962.182064 1.009163 0.015980
4962.206947 1.000749 0.015917
4962.231828 1.000176 0.015916
4962.256707 1.001117 0.015927
4962.281584 1.003067 0.015946
4962.306459 1.006029 0.015973
4962.331331 1.005944 0.015975
4962.356202 1.007122 0.015988
4962.381070 1.010073 0.016015
4962.405937 1.003369 0.015965
4962.430801 1.011392 0.016032
4962.455663 1.006704 0.015998
4962.480523 1.010908 0.016034
4962.505381 1.011803 0.016044
4962.530237 1.012692 0.016054
4962.555090 1.006193 0.016006
4962.579942 1.018274 0.016104
4962.604791 1.009722 0.016039
4962.629639 1.008802 0.016035
4962.654484 1.011958 0.016063
4962.679327 1.011026 0.016058
4962.704168 1.015958 0.016100
4962.729007 1.014504 0.016091
4962.753843 1.012023 0.016074
4962.778678 1.020259 0.016142
4962.803511 1.014443 0.016098
4962.828341 1.021393 0.016156
4962.853169 1.015049 0.016108
4962.877995 1.027106 0.016206
4962.902819 1.016655 0.016125
4962.927641 1.017703 0.016136
4962.952461 1.020534 0.016160
4962.977279 1.017987 0.016142
4963.002094 1.022856 0.016183
4963.026908 1.019525 0.016159
4963.051719 1.016697 0.016138
4963.076528 1.020011 0.016166
4963.101335 1.021524 0.016180
4963.126140 1.023799 0.016200
4963.150943 1.023505 0.016199
4963.175744 1.022176 0.016190
4963.200542 1.021865 0.016190
4963.225339 1.022061 0.016193
4963.250133 1.025070 0.016218
4963.274925 1.020887 0.016186
4963.299715 1.019775 0.016179
4963.324503 1.020194 0.016183
4963.349289 1.028052 0.016247
4963.374073 1.027945 0.016247
4963.398854 1.029369 0.016260
4963.423634 1.025393 0.016229
4963.448411 1.022176 0.016205
4963.473187 1.021264 0.016198
4963.497960 1.025996 0.016237
4963.522731 1.024296 0.016224
4963.547500 1.025155 0.016231
4963.572266 1.027810 0.016253
4963.597031 1.032764 0.016293
4963.621794 1.025117 0.016233
4963.646554 1.030830 0.016279
4963.671312 1.027534 0.016253
4963.696068 1.030401 0.016276
4963.720823 1.030432 0.016276
4963.745574 1.024024 0.016226
4963.770324 1.033034 0.016297
4963.795072 1.031237 0.016283
4963.819817 1.027117 0.016250
4963.844561 1.018101 0.016179
4963.869302 1.019621 0.016191
4963.894041 1.016758 0.016168
4963.918778 1.024427 0.016228
4963.943513 1.024889 0.016231
4963.968246 1.025599 0.016236
4963.992977 1.032209 0.016288
4964.017706 1.029299 0.016264
4964.042432 1.030751 0.016275
4964.067156 1.027567 0.016249
4964.091878 1.031567 0.016280
4964.116599 1.026052 0.016235
4964.141317 1.036196 0.016315
4964.166032 1.031948 0.016280
4964.190746 1.028973 0.016255
4964.215458 1.031382 0.016273
4964.240167 1.030696 0.016266
4964.264874 1.032828 0.016282
4964.289580 1.036742 0.016311
4964.314283 1.031923 0.016271
4964.338984 1.033252 0.016280
4964.363683 1.036621 0.016305
4964.388379 1.028184 0.016237
4964.413074 1.036146 0.016298
4964.437766 1.029742 0.016245
4964.462457 1.033582 0.016273
4964.487145 1.032283 0.016261
4964.511831 1.034815 0.016279
4964.536515 1.033498 0.016266
4964.561197 1.038568 0.016303
4964.585876 1.033390 0.016260
4964.610554 1.036900 0.016285
4964.635229 1.034004 0.016260
4964.659903 1.038514 0.016293
4964.684574 1.034575 0.016259
4964.709243 1.033951 0.016251
4964.733910 1.027442 0.016197
4964.758575 1.038795 0.016283
4964.783237 1.034308 0.016245
4964.807898 1.037975 0.016270
4964.832556 1.030664 0.016209
4964.857213 1.032526 0.016221
4964.881867 1.040230 0.016277
4964.906519 1.033659 0.016222
4964.931169 1.041079 0.016277
4964.955817 1.039834 0.016263
4964.980462 1.039084 0.016254
4965.005106 1.035531 0.016222
4965.029747 1.040857 0.016259
4965.054387 1.039060 0.016241
4965.079024 1.037250 0.016223
4965.103659 1.031376 0.016173
4965.128292 1.032592 0.016178
4965.152923 1.030248 0.016155
4965.177551 1.033973 0.016180
4965.202178 1.042235 0.016239
4965.226802 1.036060 0.016186
4965.251424 1.035192 0.016175
4965.276044 1.037846 0.016191
4965.300662 1.026600 0.016098
4965.325278 1.030493 0.016123
4965.349892 1.034371 0.016148
4965.374504 1.031679 0.016122
4965.399113 1.031751 0.016117
4965.423720 1.027532 0.016079
4965.448326 1.029590 0.016089
4965.472929 1.028117 0.016072
4965.497530 1.034670 0.016118
4965.522129 1.032167 0.016092
4965.546725 1.033666 0.016098
4965.571320 1.030645 0.016069
4965.595912 1.026861 0.016033
4965.620503 1.034579 0.016087
4965.645091 1.034022 0.016076
4965.669677 1.037952 0.016101
4965.694261 1.031132 0.016041
4965.718842 1.031540 0.016038
4965.743422 1.036418 0.016069
4965.768000 1.036051 0.016059
4965.792575 1.031440 0.016017
4965.817148 1.035277 0.016040
4965.841719 1.032637 0.016012
4965.866288 1.038177 0.016048
4965.890855 1.040964 0.016062
4965.915420 1.033337 0.015996
4965.939983 1.034863 0.016001
4965.964543 1.038844 0.016024
4965.989101 1.032683 0.015969
4966.013658 1.027753 0.015923
4966.038212 1.023803 0.015885
4966.062764 1.029453 0.015921
4966.087313 1.027700 0.015899
4966.111861 1.036500 0.015959
4966.136407 1.035946 0.015947
4966.160950 1.029737 0.015891
4966.185491 1.026467 0.015858
4966.210030 1.010466 0.015725
4966.234567 1.014042 0.015745
4966.259102 1.009540 0.015701
4966.283635 1.024306 0.015807
4966.308166 1.031228 0.015852
4966.332694 1.032281 0.015851
4966.357220 1.028211 0.015811
4966.381744 1.033611 0.015844
4966.406267 1.022244 0.015747
4966.430786 1.026401 0.015770
4966.455304 1.022787 0.015733
4966.479820 1.013126 0.015650
4966.504333 1.013373 0.015642
4966.528845 1.017466 0.015664
4966.553354 1.031410 0.015762
4966.577861 1.024139 0.015697
4966.602366 1.033690 0.015760
4966.626869 1.025685 0.015689
4966.651370 1.028231 0.015699
4966.675868 1.036745 0.015754
4966.700365 1.032790 0.015713
4966.724859 1.032176 0.015699
4966.749351 1.032978 0.015694
4966.773841 1.039958 0.015737
4966.798329 1.033586 0.015678
4966.822815 1.030067 0.015641
4966.847298 1.037456 0.015687
4966.871780 1.041493 0.015706
4966.896259 1.030842 0.015615
4966.920736 1.031782 0.015612
4966.945211 1.030343 0.015590
4966.969684 1.035492 0.015618
4966.994155 1.028381 0.015553
4967.018624 1.033726 0.015582
4967.043090 1.023092 0.015491
4967.067555 1.019735 0.015454
4967.092017 1.017310 0.015424
4967.116477 1.021183 0.015442
4967.140935 1.011974 0.015361
4967.165391 0.998818 0.015250
4967.189845 1.016843 0.015375
4967.214296 1.019943 0.015387
4967.238746 1.021164 0.015384
4967.263193 1.003858 0.015241
4967.287638 1.007615 0.015258
4967.312081 0.996353 0.015161
4967.336522 0.968298 0.014934
4967.360960 0.957796 0.014841
4967.385397 0.945936 0.014737
4967.409831 0.944876 0.014717
4967.434264 0.959826 0.014821
4967.458694 0.968317 0.014874
4967.483122 0.997071 0.015081
4967.507548 1.002029 0.015106
4967.531972 1.007869 0.015138
4967.556393 1.006411 0.015114
4967.580813 1.008797 0.015119
4967.605230 1.001662 0.015053
4967.629645 1.013957 0.015132
4967.654058 1.017854 0.015148
4967.678469 1.026002 0.015195
4967.702878 1.017258 0.015117
4967.727284 1.017949 0.015109
4967.751689 1.029144 0.015179
4967.776091 1.021291 0.015107
4967.800491 1.017915 0.015069
4967.824890 1.006520 0.014971
4967.849285 1.005376 0.014949
4967.873679 1.009549 0.014967
4967.898071 1.010370 0.014959
4967.922460 1.005870 0.014912
4967.946848 1.015493 0.014969
4967.971233 1.013394 0.014940
4967.995616 1.014807 0.014937
4968.019997 1.015982 0.014931
4968.044376 1.011224 0.014882
4968.068752 1.009311 0.014854
4968.093127 1.009357 0.014840
4968.117499 1.004161 0.014788
4968.141869 1.005058 0.014780
4968.166237 1.015050 0.014839
4968.190603 0.999656 0.014712
4968.214967 1.007863 0.014758
4968.239329 1.006534 0.014734
4968.263688 1.006919 0.014722
4968.288046 1.003422 0.014682
4968.312401 1.008287 0.014703
4968.336754 0.998567 0.014617
4968.361105 0.998271 0.014600
4968.385454 1.003289 0.014622
4968.409800 0.999765 0.014582
4968.434145 1.002186 0.014584
4968.458487 1.002464 0.014571
4968.482827 1.001672 0.014551
4968.507165 0.992853 0.014471
4968.531501 0.997319 0.014489
4968.555835 0.997971 0.014479
4968.580167 0.987289 0.014386
4968.604496 0.998391 0.014451
4968.628823 0.980419 0.014305
4968.653149 0.996460 0.014407
4968.677472 0.990597 0.014349
4968.701792 0.987442 0.014311
4968.726111 0.972905 0.014190
4968.750428 0.972871 0.014174
4968.774742 0.979213 0.014205
4968.799055 0.965775 0.014092
4968.823365 0.977003 0.014158
4968.847673 0.973427 0.014117
4968.871979 0.973739 0.014103
4968.896282 0.971179 0.014069
4968.920584 0.984074 0.014147
4968.944883 0.976204 0.014074
4968.969181 0.984752 0.014120
4968.993476 0.981332 0.014079
4969.017769 0.978316 0.014042
4969.042060 0.970675 0.013971
4969.066348 0.970682 0.013955
4969.090635 0.958664 0.013853
4969.114919 0.945888 0.013745
4969.139202 0.919409 0.013535
4969.163482 0.890655 0.013307
4969.187760 0.864201 0.013092
4969.212035 0.867938 0.013106
4969.236309 0.882504 0.013200
4969.260581 0.918658 0.013452
4969.284850 0.933016 0.013540
4969.309117 0.945331 0.013614
4969.333382 0.965597 0.013742
4969.357645 0.971315 0.013767
4969.381906 0.963950 0.013698
4969.406165 0.962434 0.013671
4969.430421 0.978347 0.013767
4969.454676 0.967116 0.013672
4969.478928 0.971736 0.013688
4969.503178 0.971509 0.013670
4969.527426 0.968970 0.013635
4969.551671 0.967006 0.013605
4969.575915 0.966183 0.013583
4969.600156 0.967066 0.013572
4969.624396 0.955962 0.013478
4969.648633 0.939400 0.013344
4969.672868 0.917427 0.013171
4969.697101 0.919503 0.013169
4969.721331 0.923814 0.013184
4969.745560 0.947235 0.013333
4969.769786 0.938703 0.013257
4969.794011 0.933000 0.013200
4969.818233 0.932531 0.013180
4969.842453 0.915886 0.013046
4969.866670 0.896531 0.012891
4969.890886 0.886321 0.012801
4969.915100 0.895700 0.012852
4969.939311 0.889018 0.012788
4969.963520 0.872998 0.012656
4969.987727 0.854122 0.012503
4970.011932 0.859792 0.012528
4970.036135 0.883993 0.012687
4970.060335 0.912055 0.012870
4970.084534 0.939600 0.013046
4970.108730 0.948562 0.013091
4970.132924 0.959988 0.013153
4970.157116 0.953188 0.013089
4970.181306 0.950535 0.013054
4970.205494 0.951639 0.013045
4970.229679 0.954866 0.013050
4970.253862 0.955038 0.013034
4970.278044 0.951474 0.012993
4970.302223 0.954818 0.012998
4970.326400 0.957600 0.013000
4970.350574 0.967045 0.013047
4970.374747 0.952203 0.012929
4970.398917 0.959839 0.012964
4970.423086 0.949609 0.012877
4970.447252 0.955446 0.012900
4970.471416 0.960717 0.012918
4970.495578 0.952958 0.012849
4970.519737 0.958012 0.012865
4970.543895 0.960615 0.012866
4970.568050 0.958725 0.012836
4970.592204 0.969001 0.012887
4970.616355 0.974081 0.012903
4970.640504 0.964804 0.012824
4970.664650 0.954205 0.012736
4970.688795 0.951451 0.012701
4970.712937 0.951236 0.012682
4970.737078 0.961128 0.012730
4970.761216 0.963218 0.012727
4970.785352 0.966126 0.012729
4970.809486 0.956127 0.012645
4970.833617 0.958012 0.012640
4970.857747 0.948566 0.012561
4970.881874 0.959065 0.012613
4970.905999 0.968667 0.012658
4970.930122 0.960718 0.012589
4970.954243 0.949843 0.012500
4970.978362 0.957880 0.012536
4971.002479 0.955556 0.012503
4971.026593 0.944586 0.012414
4971.050705 0.941473 0.012376
4971.074816 0.946643 0.012393
4971.098924 0.945786 0.012370
4971.123029 0.925885 0.012222
4971.147133 0.890961 0.011972
4971.171234 0.849484 0.011674
4971.195334 0.794631 0.011275
4971.219431 0.775172 0.011121
4971.243526 0.796539 0.011257
4971.267619 0.840145 0.011545
4971.291710 0.889348 0.011861
4971.315798 0.913183 0.012002
4971.339885 0.928538 0.012085
4971.363969 0.932186 0.012092
4971.388051 0.945657 0.012162
4971.412131 0.927223 0.012026
4971.436209 0.933457 0.012049
4971.460284 0.945383 0.012108
4971.484358 0.946405 0.012098
4971.508429 0.954657 0.012133
4971.532498 0.945630 0.012058
4971.556565 0.946765 0.012048
4971.580630 0.953231 0.012072
4971.604693 0.955382 0.012068
4971.628753 0.951733 0.012028
4971.652811 0.964314 0.012090
4971.676868 0.938118 0.011907
4971.700922 0.934066 0.011865
4971.724973 0.908989 0.011687
4971.749023 0.873108 0.011438
4971.773071 0.821288 0.011077
4971.797116 0.797317 0.010899
4971.821159 0.822792 0.011055
4971.845200 0.846037 0.011194
4971.869239 0.894542 0.011494
4971.893276 0.892688 0.011465
4971.917311 0.876445 0.011344
4971.941343 0.870975 0.011292
4971.965373 0.877642 0.011319
4971.989401 0.917885 0.011559
4972.013427 0.938001 0.011668
4972.037451 0.949017 0.011719
4972.061473 0.969773 0.011829
4972.085492 0.979173 0.011869
4972.109510 0.983059 0.011875
4972.133525 0.977756 0.011826
4972.157538 0.969765 0.011760
4972.181549 0.979300 0.011801
4972.205557 0.977141 0.011770
4972.229564 0.973714 0.011732
4972.253568 0.974243 0.011718
4972.277570 0.970401 0.011678
4972.301570 0.985910 0.011754
4972.325568 0.988043 0.011749
4972.349564 0.967169 0.011607
4972.373557 0.967659 0.011593
4972.397549 0.986138 0.011686
4972.421538 0.982267 0.011646
4972.445525 0.993553 0.011695
4972.469510 0.971682 0.011549
4972.493493 0.988523 0.011631
4972.517473 0.977145 0.011547
4972.541451 0.959158 0.011423
4972.565428 0.945336 0.011324
4972.589402 0.885468 0.010943
4972.613374 0.816908 0.010496
4972.637343 0.786659 0.010284
4972.661311 0.795725 0.010328
4972.685276 0.832929 0.010551
4972.709240 0.888562 0.010882
4972.733201 0.944785 0.011204
4972.757160 0.945957 0.011194
4972.781116 0.951735 0.011212
4972.805071 0.980513 0.011363
4972.829023 0.965916 0.011261
4972.852974 0.990668 0.011388
4972.876922 0.984068 0.011333
4972.900868 0.987258 0.011334
4972.924812 0.996647 0.011371
4972.948753 0.992130 0.011328
4972.972693 0.996785 0.011338
4972.996630 1.002304 0.011352
4973.020565 1.003294 0.011341
4973.044498 0.993913 0.011271
4973.068429 0.994393 0.011257
4973.092357 1.001084 0.011278
4973.116284 0.998987 0.011249
4973.140208 0.995123 0.011211
4973.164130 0.984473 0.011134
4973.188050 0.986055 0.011126
4973.211968 0.988619 0.011124
4973.235884 0.983921 0.011081
4973.259797 0.997531 0.011141
4973.283708 0.993807 0.011103
4973.307618 1.004816 0.011148
4973.331525 0.990714 0.011053
4973.355429 1.009393 0.011140
4973.379332 0.994119 0.011039
4973.403232 1.005201 0.011084
4973.427131 1.006095 0.011072
4973.451027 1.004302 0.011046
4973.474921 0.996453 0.010986
4973.498813 1.016900 0.011081
4973.522702 1.017712 0.011069
4973.546590 1.010946 0.011016
4973.570475 1.008639 0.010987
4973.594358 1.020179 0.011033
4973.618239 1.023431 0.011034
4973.642118 1.012303 0.010957
4973.665995 1.023227 0.011000
4973.689869 1.013800 0.010933
4973.713741 1.015233 0.010924
4973.737611 1.027312 0.010972
4973.761479 1.022836 0.010932
4973.785345 1.037364 0.010993
4973.809209 1.020555 0.010887
4973.833070 1.034175 0.010943
4973.856929 1.031426 0.010912
4973.880787 1.020398 0.010838
4973.904642 1.019180 0.010815
4973.928494 1.011096 0.010756
4973.952345 1.017311 0.010773
4973.976193 1.016200 0.010751
4974.000040 1.016675 0.010737
4974.023884 1.015443 0.010714
4974.047726 1.025930 0.010753
4974.071565 1.024660 0.010731
4974.095403 1.022379 0.010703
4974.119238 1.021332 0.010681
4974.143072 1.033091 0.010727
4974.166903 1.000910 0.010542
4974.190732 1.019949 0.010626
4974.214558 0.995487 0.010482
4974.238383 0.995264 0.010465
4974.262205 0.980110 0.010370
4974.286026 0.944803 0.010166
4974.309844 0.908934 0.009956
4974.333660 0.827929 0.009488
4974.357473 0.756940 0.009059
4974.381285 0.689502 0.008633
4974.405094 0.658994 0.008427
4974.428901 0.719345 0.008791
4974.452706 0.815432 0.009346
4974.476509 0.897696 0.009792
4974.500310 0.961147 0.010117
4974.524108 0.995971 0.010283
4974.547905 1.020629 0.010394
4974.571699 1.028459 0.010418
4974.595491 1.013925 0.010329
4974.619281 1.014368 0.010316
4974.643068 1.004548 0.010250
4974.666854 0.993527 0.010179
4974.690637 1.010949 0.010252
4974.714418 1.027534 0.010321
4974.738197 1.030886 0.010322
4974.761974 1.053068 0.010417
4974.785749 1.051890 0.010396
4974.809521 1.040979 0.010326
4974.833292 1.051164 0.010361
4974.857060 1.060466 0.010392
4974.880826 1.057419 0.010361
4974.904589 1.046890 0.010294
4974.928351 1.056804 0.010328
4974.952110 1.040588 0.010233
4974.975868 1.034193 0.010186
4974.999623 1.041932 0.010209
4975.023376 1.048320 0.010225
4975.047126 1.046608 0.010202
4975.070875 1.046385 0.010186
4975.094621 1.052778 0.010201
4975.118365 1.055184 0.010198
4975.142107 1.047151 0.010144
4975.165847 1.042194 0.010105
4975.189585 1.049372 0.010125
4975.213320 1.044520 0.010086
4975.237054 1.039689 0.010048
4975.260785 1.036815 0.010020
4975.284514 1.041673 0.010028
4975.308241 1.043415 0.010022
4975.331965 1.041780 0.009999
4975.355688 1.044741 0.009999
4975.379408 1.034890 0.009937
4975.403126 1.047065 0.009980
4975.426842 1.032793 0.009897
4975.450556 1.044982 0.009941
4975.474267 1.037669 0.009892
4975.497977 1.015254 0.009770
4975.521684 1.014430 0.009751
4975.545389 0.998836 0.009662
4975.569092 0.994788 0.009628
4975.592793 1.001350 0.009646
4975.616491 1.006847 0.009658
4975.640187 0.989858 0.009562
4975.663882 0.988618 0.009542
4975.687574 0.985818 0.009515
4975.711263 0.993008 0.009535
4975.734951 0.982802 0.009472
4975.758636 0.991857 0.009502
4975.782320 0.995587 0.009506
4975.806001 0.995669 0.009492
4975.829680 1.013250 0.009562
4975.853356 1.005798 0.009513
4975.877031 1.020900 0.009570
4975.900703 1.010236 0.009506
4975.924374 1.027097 0.009571
4975.948042 1.031047 0.009576
4975.971708 1.031509 0.009564
4975.995371 1.037355 0.009577
