5005.854587 1.003674 0.003682
5005.875232 1.005267 0.003685
5005.895875 0.999689 0.003675
5005.916515 0.997829 0.003671
5005.937153 0.999631 0.003675
5005.957789 1.005287 0.003685
5005.978423 1.007067 0.003688
5005.999054 0.999624 0.003675
5006.019683 1.015143 0.003712
5006.040310 1.015903 0.003713
5006.060935 1.019338 0.003719
5006.081557 1.010075 0.003702
5006.102177 1.012103 0.003705
5006.122794 0.983772 0.003652
5006.143409 0.965163 0.003617
5006.164022 0.930274 0.003551
5006.184633 0.902137 0.003496
5006.205241 0.890232 0.003473
5006.225848 0.912735 0.003516
5006.246451 0.943367 0.003574
5006.267053 0.966893 0.003618
5006.287652 0.982073 0.003646
5006.308249 0.990238 0.003660
5006.328844 1.008859 0.003694
5006.349436 1.002980 0.003683
5006.370026 0.991021 0.003661
5006.390614 0.979893 0.003640
5006.411199 0.944402 0.003573
5006.431782 0.894564 0.003477
5006.452363 0.852802 0.003394
5006.472942 0.818582 0.003325
5006.493518 0.826905 0.003342
5006.514092 0.860596 0.003409
5006.534664 0.903966 0.003493
5006.555233 0.940411 0.003563
5006.575800 0.967640 0.003613
5006.596365 0.981018 0.003638
5006.616928 0.979516 0.003635
5006.637488 0.976249 0.003628
5006.658046 0.962832 0.003603
5006.678601 0.934635 0.003550
5006.699155 0.920089 0.003521
5006.719706 0.910146 0.003502
5006.740255 0.915810 0.003513
5006.760801 0.914254 0.003509
5006.781345 0.913386 0.003507
5006.801887 0.916210 0.003512
5006.822427 0.906878 0.003494
5006.842964 0.901885 0.003484
5006.863499 0.886398 0.003454
5006.884032 0.874336 0.003430
5006.904562 0.831256 0.003344
5006.925090 0.745915 0.003168
5006.945616 0.654215 0.002966
5006.966139 0.538800 0.002692
5006.986661 0.424688 0.002390
5007.007179 0.341371 0.002142
5007.027696 0.314825 0.002057
5007.048210 0.365168 0.002215
5007.068722 0.462979 0.002494
5007.089232 0.584176 0.002801
5007.109740 0.689071 0.003042
5007.130245 0.765464 0.003206
5007.150748 0.818537 0.003315
5007.171248 0.843564 0.003365
5007.191746 0.844891 0.003368
5007.212242 0.840005 0.003358
5007.232736 0.824627 0.003327
5007.253227 0.795287 0.003267
5007.273716 0.756618 0.003186
5007.294203 0.704346 0.003074
5007.314688 0.635779 0.002920
5007.335170 0.558045 0.002736
5007.355650 0.477369 0.002530
5007.376127 0.388469 0.002282
5007.396602 0.313079 0.002049
5007.417075 0.260791 0.001870
5007.437546 0.248804 0.001826
5007.458015 0.287086 0.001961
5007.478481 0.367849 0.002220
5007.498944 0.470539 0.002511
5007.519406 0.581337 0.002791
5007.539865 0.664102 0.002983
5007.560322 0.734381 0.003136
5007.580777 0.788696 0.003250
5007.601229 0.821830 0.003317
5007.621679 0.851505 0.003376
5007.642127 0.863383 0.003400
5007.662572 0.882569 0.003437
5007.683015 0.888113 0.003448
5007.703456 0.896790 0.003464
5007.723895 0.907661 0.003485
5007.744331 0.923616 0.003515
5007.764765 0.929468 0.003526
5007.785196 0.931107 0.003529
5007.805626 0.932279 0.003531
5007.826053 0.928249 0.003524
5007.846477 0.931671 0.003530
5007.866900 0.938491 0.003543
5007.887320 0.940284 0.003546
5007.907738 0.946196 0.003557
5007.928153 0.952269 0.003568
5007.948567 0.949746 0.003563
5007.968978 0.949512 0.003563
5007.989386 0.944560 0.003553
5008.009793 0.945372 0.003555
5008.030197 0.944381 0.003553
5008.050598 0.955526 0.003573
5008.070998 0.953148 0.003569
5008.091395 0.955047 0.003572
5008.111790 0.953381 0.003569
5008.132182 0.963807 0.003588
5008.152573 0.960848 0.003583
5008.172961 0.959093 0.003579
5008.193346 0.957566 0.003576
5008.213730 0.961425 0.003584
5008.234111 0.961851 0.003584
5008.254489 0.959823 0.003580
5008.274866 0.960547 0.003582
5008.295240 0.958948 0.003579
5008.315612 0.949166 0.003560
5008.335981 0.950857 0.003563
5008.356349 0.941173 0.003545
5008.376714 0.929622 0.003523
5008.397076 0.900477 0.003467
5008.417437 0.847558 0.003364
5008.437795 0.760496 0.003186
5008.458150 0.639054 0.002921
5008.478504 0.498185 0.002579
5008.498855 0.377457 0.002245
5008.519204 0.300626 0.002003
5008.539550 0.269610 0.001897
5008.559895 0.271951 0.001905
5008.580237 0.297063 0.001991
5008.600576 0.356767 0.002182
5008.620914 0.460539 0.002479
5008.641249 0.586474 0.002798
5008.661582 0.705224 0.003068
5008.681912 0.798427 0.003264
5008.702240 0.864458 0.003397
5008.722566 0.897459 0.003461
5008.742890 0.922693 0.003509
5008.763211 0.941190 0.003544
5008.783530 0.958406 0.003576
5008.803846 0.964575 0.003588
5008.824161 0.974908 0.003607
5008.844473 0.975782 0.003608
5008.864782 0.983783 0.003623
5008.885090 0.978174 0.003613
5008.905395 0.983376 0.003622
5008.925698 0.976423 0.003610
5008.945998 0.959878 0.003579
5008.966297 0.933646 0.003530
5008.986593 0.883103 0.003433
5009.006886 0.826596 0.003321
5009.027178 0.783687 0.003234
5009.047467 0.782853 0.003232
5009.067753 0.818557 0.003305
5009.088038 0.873373 0.003414
5009.108320 0.922626 0.003509
5009.128600 0.965931 0.003590
5009.148877 0.966027 0.003591
5009.169152 0.989105 0.003633
5009.189425 0.998426 0.003650
5009.209696 1.010846 0.003673
5009.229964 1.002354 0.003658
5009.250230 1.002645 0.003658
5009.270494 1.008223 0.003668
5009.290755 1.001777 0.003657
5009.311014 0.998162 0.003650
5009.331271 0.996257 0.003647
