GFORTRAN module version '10' created from rw_modules.f
MD5:0518961c4c03c1353b46afa9434d6339 -- If you edit this, you'll get what you deserve.

(() () () () () () () () () () () () () () () () () () () () () () () ()
() () ())

()

()

()

()

()

(2 'common_arrays_rw' 'common_arrays_rw' '' 1 ((MODULE UNKNOWN-INTENT
UNKNOWN-PROC UNKNOWN UNKNOWN 0 0) (UNKNOWN 0 0 0 0 UNKNOWN ()) 0 0 () ()
0 () () () 0 0)
3 'spec_list' 'common_arrays_rw' '' 1 ((VARIABLE UNKNOWN-INTENT
UNKNOWN-PROC UNKNOWN IMPLICIT-SAVE 0 0 ALLOCATABLE DIMENSION) (INTEGER 4
0 0 0 INTEGER ()) 0 0 () (1 0 DEFERRED () ()) 0 () () () 0 0)
4 'spec_list_aux' 'common_arrays_rw' '' 1 ((VARIABLE UNKNOWN-INTENT
UNKNOWN-PROC UNKNOWN IMPLICIT-SAVE 0 0 ALLOCATABLE DIMENSION) (INTEGER 4
0 0 0 INTEGER ()) 0 0 () (1 0 DEFERRED () ()) 0 () () () 0 0)
)

('common_arrays_rw' 0 2 'spec_list' 0 3 'spec_list_aux' 0 4)
