GFORTRAN module version '10' created from rw_modules.f
MD5:bce9b6a96e61b9f55eb34a8f558d108b -- If you edit this, you'll get what you deserve.

(() () () () () () () () () () () () () () () () () () () () () () () ()
() () ())

()

()

()

()

()

(2 'fft' 'fourier' '' 1 ((VARIABLE UNKNOWN-INTENT UNKNOWN-PROC UNKNOWN
IMPLICIT-SAVE 0 0 ALLOCATABLE DIMENSION) (COMPLEX 8 0 0 0 COMPLEX ()) 0
0 () (1 0 DEFERRED () ()) 0 () () () 0 0)
3 'fourier' 'fourier' '' 1 ((MODULE UNKNOWN-INTENT UNKNOWN-PROC UNKNOWN
UNKNOWN 0 0) (UNKNOWN 0 0 0 0 UNKNOWN ()) 0 0 () () 0 () () () 0 0)
)

('fft' 0 2 'fourier' 0 3)
